***SYRTHES V4.2**************************************************************************************
***oven
*****************************************************************************************************
***NTSYR=          230  ***TEMPS=   6.90000000000000000e+04    ***DT=   3.00000000000000000e+02
*****************************************************************************************************
***VAR=  TEMPERATURE ***TYPE= 3  ***NB=         5252
 6.032332937e+02  6.096526680e+02  6.509724820e+02  6.507200655e+02  7.004240238e+02  7.009315127e+02
 7.028393955e+02  7.023510705e+02  7.005431001e+02  7.010996003e+02  7.029338279e+02  7.024205023e+02
 6.421222425e+02  6.431177730e+02  6.608043761e+02  6.576701936e+02  6.834577124e+02  6.838053640e+02
 7.142180663e+02  7.148536801e+02  6.545592795e+02  6.583466670e+02  6.846005593e+02  6.823200094e+02
 7.127443465e+02  7.125651282e+02  7.200994173e+02  7.166072311e+02  7.256708995e+02  7.258430661e+02
 7.261514426e+02  7.259886721e+02  7.263104709e+02  7.264597706e+02  7.270214051e+02  7.268763236e+02
 6.819212678e+02  6.829544071e+02  7.719527705e+02  7.724328113e+02  7.350547776e+02  7.362151515e+02
 7.663887182e+02  7.660000850e+02  7.500434154e+02  7.501053444e+02  7.518450255e+02  7.518611941e+02
 7.498108665e+02  7.498649684e+02  7.516239942e+02  7.515619390e+02  1.022759036e+02  2.000000000e+01
 3.945493366e+02  2.000000000e+01  1.014504063e+02  3.950033471e+02  2.000000000e+01  4.516378041e+02
 4.521943797e+02  2.000000000e+01  6.892059106e+02  6.882697367e+02  6.903890897e+02  6.894690263e+02
 7.814959946e+02  7.938961050e+02  7.814119112e+02  7.937700277e+02  7.821414774e+02  7.940042886e+02
 7.940750908e+02  7.821570536e+02  7.869555474e+02  7.869699605e+02  7.777435444e+02  7.772213880e+02
 7.751033005e+02  7.749116906e+02  7.686608270e+02  7.684193999e+02  7.774587128e+02  7.774443267e+02
 7.775308543e+02  7.775368625e+02  7.778284500e+02  7.778350211e+02  5.781476281e+02  5.590502095e+02
 5.470797146e+02  5.414405001e+02  5.472282043e+02  5.596167579e+02  5.775729023e+02  6.018987387e+02
 6.054088827e+02  6.064142401e+02  6.052333766e+02  6.009558609e+02  6.029190448e+02  6.084015505e+02
 6.052117999e+02  6.017968648e+02  6.084881760e+02  6.070481096e+02  6.035592099e+02  6.476949437e+02
 6.330952316e+02  6.206429323e+02  6.084110328e+02  6.020889535e+02  6.089379411e+02  6.221575108e+02
 6.361300982e+02  6.499576970e+02  6.407648126e+02  6.379419025e+02  6.498951206e+02  6.503415914e+02
 6.484181934e+02  6.505545475e+02  6.501930951e+02  6.483747403e+02  6.505415662e+02  6.492219164e+02
 6.504639533e+02  6.497547395e+02  6.487293279e+02  6.509061979e+02  6.491656779e+02  6.517360381e+02
 6.500074586e+02  7.023360717e+02  7.023574387e+02  7.023951005e+02  7.024325086e+02  7.024434970e+02
 7.024751222e+02  7.024814895e+02  7.024831931e+02  7.024832052e+02  7.024919220e+02  7.025247779e+02
 7.025566352e+02  7.026106115e+02  7.026574302e+02  7.026844227e+02  7.027291723e+02  7.027449182e+02
 7.027769288e+02  7.028024725e+02  7.028122045e+02  7.028360791e+02  7.028716088e+02  7.028657896e+02
 7.028886174e+02  7.028896342e+02  7.029042299e+02  7.029172017e+02  7.029043467e+02  7.028669871e+02
 7.028431509e+02  7.018395417e+02  7.004053035e+02  7.004505470e+02  7.004756629e+02  7.005017870e+02
 7.005306509e+02  7.005481563e+02  7.005664160e+02  7.005892170e+02  7.005863485e+02  7.005977679e+02
 7.006361308e+02  7.006705410e+02  7.007300770e+02  7.007745059e+02  7.008172852e+02  7.008339524e+02
 7.008344953e+02  7.008756273e+02  7.009169951e+02  7.009258059e+02  7.009275592e+02  7.009539299e+02
 7.010149580e+02  7.010055226e+02  7.009882147e+02  7.009884269e+02  7.009992203e+02  7.010004855e+02
 7.009843324e+02  7.009529411e+02  7.013068224e+02  7.014323363e+02  7.005974586e+02  7.006131777e+02
 7.006358985e+02  7.006537216e+02  7.006779125e+02  7.007089854e+02  7.007258728e+02  7.007304844e+02
 7.007208683e+02  7.007366649e+02  7.007485254e+02  7.007661071e+02  7.008020057e+02  7.008619076e+02
 7.009205399e+02  7.009576333e+02  7.009702739e+02  7.010063009e+02  7.010235996e+02  7.010418728e+02
 7.010612746e+02  7.010752315e+02  7.011147714e+02  7.011219653e+02  7.011393266e+02  7.011392336e+02
 7.011572210e+02  7.011608959e+02  7.011556720e+02  7.011575092e+02  7.011607819e+02  7.011546153e+02
 7.011393910e+02  7.011306666e+02  7.019547171e+02  7.024166976e+02  7.024236090e+02  7.024589348e+02
 7.024993707e+02  7.025125687e+02  7.025173068e+02  7.025536959e+02  7.025558504e+02  7.025575792e+02
 7.025362818e+02  7.025428997e+02  7.025878753e+02  7.026214925e+02  7.026481702e+02  7.026840277e+02
 7.027388909e+02  7.027847449e+02  7.027985562e+02  7.027990844e+02  7.028295775e+02  7.028691240e+02
 7.028869020e+02  7.028810956e+02  7.028980593e+02  7.029303981e+02  7.029618270e+02  7.029678276e+02
 7.029612135e+02  7.029680195e+02  7.029889175e+02  7.029874260e+02  7.029636379e+02  7.029389040e+02
 7.029084399e+02  6.576845930e+02  6.584597138e+02  6.590814863e+02  6.585291968e+02  6.597931901e+02
 6.473336089e+02  6.545183301e+02  6.596881839e+02  6.417112828e+02  6.418991235e+02  6.419365702e+02
 6.424070873e+02  6.427929380e+02  6.463515572e+02  6.512558372e+02  6.568923219e+02  7.181753763e+02
 7.170502163e+02  7.153483296e+02  7.116520837e+02  7.038039163e+02  6.887890997e+02  6.719088334e+02
 6.673563000e+02  6.627197437e+02  6.621653955e+02  6.609046688e+02  6.584261289e+02  6.531772242e+02
 6.474315141e+02  7.011488732e+02  6.486192396e+02  6.553042205e+02  6.596090213e+02  6.620058762e+02
 6.629491601e+02  6.640697932e+02  6.683497297e+02  6.768906859e+02  6.815098669e+02  6.820055042e+02
 6.819887878e+02  6.817327541e+02  6.843533248e+02  6.818473460e+02  6.824588580e+02  6.811108057e+02
 6.822745726e+02  6.823633735e+02  6.846948855e+02  6.816777351e+02  6.817916934e+02  6.818019318e+02
 6.820204760e+02  6.820363170e+02  6.846757898e+02  6.822535632e+02  6.822104575e+02  6.829977975e+02
 6.830798539e+02  6.822818840e+02  6.851958341e+02  6.823561123e+02  6.811799373e+02  6.777771813e+02
 6.960000866e+02  7.069430758e+02  7.127434565e+02  7.159022479e+02  7.176938542e+02  7.183871936e+02
 7.018148868e+02  7.146506632e+02  7.144929627e+02  7.137221728e+02  7.145228374e+02  7.145768398e+02
 7.139928683e+02  7.134653754e+02  7.134204554e+02  7.143007792e+02  7.145539873e+02  7.146106656e+02
 7.140439394e+02  7.152409144e+02  7.152995816e+02  7.145402902e+02  7.142309468e+02  7.145112664e+02
 7.148291550e+02  7.143751631e+02  7.141692947e+02  7.142282455e+02  7.155727481e+02  7.149509114e+02
 7.145103067e+02  7.142638674e+02  7.154996733e+02  6.826111903e+02  6.821212004e+02  6.822222240e+02
 6.829858169e+02  6.840907984e+02  6.769329298e+02  6.599988967e+02  6.604698734e+02  6.591408862e+02
 6.585455232e+02  6.606663477e+02  6.747673843e+02  7.034591098e+02  6.909197172e+02  6.916178325e+02
 6.719018892e+02  6.792187859e+02  6.962240448e+02  7.101557681e+02  7.096267695e+02  7.115916173e+02
 7.106916493e+02  7.115933913e+02  7.120450259e+02  7.083527088e+02  7.100979666e+02  7.114910558e+02
 7.103033250e+02  7.101139961e+02  6.929125456e+02  7.066302254e+02  7.158165147e+02  7.169746976e+02
 7.173837919e+02  7.165713517e+02  7.169971826e+02  7.172645268e+02  7.172307889e+02  7.176531396e+02
 7.163158292e+02  7.175680739e+02  7.166039812e+02  7.259608914e+02  7.259366725e+02  7.259412122e+02
 7.259587525e+02  7.259657649e+02  7.259527421e+02  7.259510230e+02  7.259605717e+02  7.259877717e+02
 7.259964323e+02  7.259982732e+02  7.260180723e+02  7.260686645e+02  7.261034383e+02  7.261372923e+02
 7.256622096e+02  7.256539433e+02  7.256561579e+02  7.256697558e+02  7.256756775e+02  7.256707385e+02
 7.256755289e+02  7.256838779e+02  7.257037626e+02  7.257086678e+02  7.257163521e+02  7.257362773e+02
 7.257706571e+02  7.258058420e+02  7.258280363e+02  7.268942553e+02  7.268801240e+02  7.267430062e+02
 7.264208157e+02  7.263484799e+02  7.264255227e+02  7.263279565e+02  7.260441718e+02  7.262064392e+02
 7.264724856e+02  7.265605590e+02  7.264977520e+02  7.263016348e+02  7.263035189e+02  7.263137429e+02
 7.263130160e+02  7.262915345e+02  7.262846573e+02  7.263081939e+02  7.263140273e+02  7.263237353e+02
 7.263016750e+02  7.262850647e+02  7.262986419e+02  7.263246828e+02  7.263542604e+02  7.263461683e+02
 7.263270009e+02  7.263312134e+02  7.263412617e+02  7.263431567e+02  7.263234978e+02  7.263089533e+02
 7.263167726e+02  7.263402597e+02  7.263616043e+02  7.263813122e+02  7.263802115e+02  7.264145624e+02
 7.264402782e+02  7.264585986e+02  7.264575791e+02  7.265587447e+02  7.268759984e+02  7.270128269e+02
 7.270277732e+02  7.268621706e+02  7.268577447e+02  7.268619698e+02  7.268679405e+02  7.268513838e+02
 7.268411517e+02  7.268584387e+02  7.268727473e+02  7.268875188e+02  7.268665524e+02  7.268386599e+02
 7.268534424e+02  7.268798197e+02  7.269058663e+02  7.269058852e+02  7.268852298e+02  7.268876451e+02
 7.269006346e+02  7.269062685e+02  7.268847665e+02  7.268676506e+02  7.268738043e+02  7.268993031e+02
 7.269195510e+02  7.269460214e+02  7.269408105e+02  7.269646068e+02  7.269918131e+02  7.270058282e+02
 7.270136380e+02  7.722125937e+02  7.713926930e+02  7.706850417e+02  7.714216147e+02  7.714643321e+02
 6.916298990e+02  7.176753469e+02  7.608248882e+02  6.809953869e+02  6.816003213e+02  6.821266420e+02
 6.808332764e+02  6.818543366e+02  6.930758538e+02  7.231165023e+02  7.625381982e+02  7.722286012e+02
 7.722664124e+02  7.708790254e+02  7.698489847e+02  7.264875646e+02  7.220783096e+02  7.148937452e+02
 7.004101295e+02  7.509941339e+02  7.016269882e+02  7.156256408e+02  7.219928785e+02  7.267818213e+02
 7.345339819e+02  7.349119216e+02  7.380909693e+02  7.360419210e+02  7.362442940e+02  7.362528250e+02
 7.362664420e+02  7.372199779e+02  7.358224252e+02  7.350840147e+02  7.352916371e+02  7.350368932e+02
 7.381719969e+02  7.367156543e+02  7.357284771e+02  7.358932337e+02  7.378091120e+02  7.351555034e+02
 7.339583917e+02  7.690780006e+02  7.705191361e+02  7.722289772e+02  7.723293260e+02  7.516874281e+02
 7.694675709e+02  7.674508991e+02  7.648614148e+02  7.661294141e+02  7.656091001e+02  7.654347747e+02
 7.652971553e+02  7.664031852e+02  7.665337417e+02  7.656981114e+02  7.656816801e+02  7.658200999e+02
 7.651791732e+02  7.657229127e+02  7.653427521e+02  7.655103272e+02  7.658194583e+02  7.667693623e+02
 7.668012423e+02  7.518460024e+02  7.518665541e+02  7.518534663e+02  7.518539494e+02  7.518562793e+02
 7.518386927e+02  7.518442116e+02  7.518446989e+02  7.518444787e+02  7.518415426e+02  7.518337971e+02
 7.518391677e+02  7.518547563e+02  7.518641394e+02  7.518735192e+02  7.518715354e+02  7.518665485e+02
 7.518679016e+02  7.518534360e+02  7.518634564e+02  7.518363998e+02  7.518465074e+02  7.518394665e+02
 7.509291806e+02  7.501051610e+02  7.500841812e+02  7.500920469e+02  7.500914927e+02  7.500997349e+02
 7.500929493e+02  7.500783335e+02  7.500876229e+02  7.500905112e+02  7.500979153e+02  7.500866465e+02
 7.501004483e+02  7.501111480e+02  7.501133217e+02  7.501029559e+02  7.501261225e+02  7.501273174e+02
 7.501313191e+02  7.501324250e+02  7.501182954e+02  7.501385305e+02  7.501159570e+02  7.501031591e+02
 7.509411192e+02  7.515714297e+02  7.516391044e+02  7.517304138e+02  7.499247370e+02  7.500382659e+02
 7.501090073e+02  7.506981509e+02  7.501336128e+02  7.500699129e+02  7.499647343e+02  7.498541940e+02
 7.498851276e+02  7.499147741e+02  7.498899818e+02  7.499161966e+02  7.498875977e+02  7.499175354e+02
 7.499251958e+02  7.499219533e+02  7.499317777e+02  7.498616066e+02  7.498578751e+02  7.498948147e+02
 7.498850574e+02  7.499113692e+02  7.498916764e+02  7.499207561e+02  7.499148849e+02  7.499241459e+02
 7.499860571e+02  7.499753293e+02  7.499631655e+02  7.499353154e+02  7.499610919e+02  7.499616792e+02
 7.499433390e+02  7.499765534e+02  7.499745413e+02  7.499424105e+02  7.499661992e+02  7.499340626e+02
 7.499449712e+02  7.499054602e+02  7.499003240e+02  7.517494383e+02  7.516721431e+02  7.516169770e+02
 7.507524213e+02  7.515300318e+02  7.515153833e+02  7.515561039e+02  7.515459151e+02  7.515633681e+02
 7.515092011e+02  7.515393331e+02  7.515702690e+02  7.515479703e+02  7.515597053e+02  7.515022512e+02
 7.514962943e+02  7.515461983e+02  7.515393798e+02  7.515633226e+02  7.515526916e+02  7.515702121e+02
 7.515546417e+02  7.515456129e+02  7.515918914e+02  7.515872423e+02  7.516068451e+02  7.515827402e+02
 7.515808093e+02  7.516014175e+02  7.515894173e+02  7.516155512e+02  7.515901812e+02  7.515950392e+02
 7.516171743e+02  7.515902289e+02  7.515914232e+02  7.515575802e+02  7.515748187e+02  1.034154510e+02
 1.034311703e+02  1.035115434e+02  1.064576302e+02  1.034498696e+02  6.077009212e+01  2.000000000e+01
 2.000000000e+01  2.000000000e+01  2.000000000e+01  2.000000000e+01  6.166472886e+01  1.651275098e+02
 2.182644274e+02  2.695020557e+02  3.187496193e+02  3.617263778e+02  3.961527199e+02  3.959166179e+02
 3.967587304e+02  3.961656130e+02  3.968439158e+02  1.634237535e+02  2.155881397e+02  2.654657122e+02
 3.186697755e+02  3.621302702e+02  2.000000000e+01  2.000000000e+01  2.000000000e+01  2.000000000e+01
 2.000000000e+01  2.000000000e+01  2.000000000e+01  2.000000000e+01  2.000000000e+01  2.000000000e+01
 2.000000000e+01  2.000000000e+01  2.000000000e+01  2.000000000e+01  2.000000000e+01  3.991357529e+02
 4.209992535e+02  9.958207642e+01  1.803359106e+02  2.635152181e+02  3.461078774e+02  4.209204704e+02
 3.986207544e+02  4.526602109e+02  4.529892838e+02  4.539626967e+02  4.504081554e+02  4.529013271e+02
 4.523386561e+02  4.516243785e+02  4.513100022e+02  4.529400908e+02  4.570062614e+02  4.511962181e+02
 9.950540232e+01  1.801454414e+02  2.630665362e+02  3.460867893e+02  2.000000000e+01  2.000000000e+01
 7.013625968e+01  7.943474789e+01  4.104977839e+02  4.495329440e+02  5.048162798e+02  5.610290788e+02
 6.023864675e+02  6.298588657e+02  6.473499058e+02  6.610891964e+02  6.709039136e+02  6.778615798e+02
 6.837145716e+02  6.873280356e+02  6.881528104e+02  6.881749589e+02  6.880986753e+02  6.880855374e+02
 6.882022718e+02  6.882414888e+02  6.882405721e+02  6.882174303e+02  6.882148726e+02  6.882139729e+02
 6.881905439e+02  6.881644131e+02  6.881844705e+02  6.882131876e+02  6.882576237e+02  6.883014605e+02
 6.883721117e+02  6.884347606e+02  6.884816680e+02  6.884235197e+02  6.883618394e+02  6.883043224e+02
 6.883402491e+02  6.883712492e+02  6.884634049e+02  6.885538253e+02  6.885884905e+02  6.886290414e+02
 6.887063089e+02  6.887100360e+02  6.886510050e+02  6.886411025e+02  6.886987631e+02  6.887584155e+02
 6.887971015e+02  6.889177973e+02  6.890537042e+02  6.889662660e+02  4.134795242e+02  4.572702308e+02
 5.138927835e+02  5.691434199e+02  6.065066928e+02  6.318809347e+02  6.501667929e+02  6.629863998e+02
 6.724212377e+02  6.789864952e+02  6.843556297e+02  6.881276049e+02  5.245238438e+02  5.751761760e+02
 6.089366598e+02  6.344802341e+02  6.501629761e+02  6.622506417e+02  6.711803475e+02  6.772535475e+02
 6.821145077e+02  6.861789908e+02  6.884236682e+02  6.895392303e+02  6.895033982e+02  6.895577067e+02
 6.895107956e+02  6.894987664e+02  6.895261513e+02  6.895648430e+02  6.895770168e+02  6.895666635e+02
 6.895327026e+02  6.894304078e+02  6.893555802e+02  6.894236057e+02  6.894229342e+02  6.894261816e+02
 6.894516458e+02  6.894993805e+02  6.895627283e+02  6.896365195e+02  6.897103128e+02  6.897524781e+02
 6.896909060e+02  6.896043167e+02  6.896576261e+02  6.896394234e+02  6.896397715e+02  6.896677175e+02
 6.897239788e+02  6.897952696e+02  6.898593035e+02  6.899018066e+02  6.899177691e+02  6.898504551e+02
 6.899002213e+02  6.899691186e+02  6.899844314e+02  6.900210002e+02  6.900809596e+02  6.901537120e+02
 6.902487076e+02  6.903561901e+02  6.904522349e+02  6.903952636e+02  5.371214546e+02  5.800605524e+02
 6.118331214e+02  6.323808388e+02  6.486965432e+02  6.596471551e+02  6.690355980e+02  6.755795266e+02
 6.813196630e+02  6.852604438e+02  6.875098229e+02  6.884952904e+02  7.938438375e+02  7.938019312e+02
 7.938482024e+02  7.938264310e+02  7.938043745e+02  7.938496813e+02  7.938552944e+02  7.938408693e+02
 7.938207644e+02  7.938426165e+02  7.937887807e+02  7.938246404e+02  7.938107923e+02  7.938224432e+02
 7.938356702e+02  7.938335552e+02  7.938389574e+02  7.937954304e+02  7.938265114e+02  7.938158339e+02
 7.938313838e+02  7.938296810e+02  7.938275408e+02  7.938394149e+02  7.938313162e+02  7.938284285e+02
 7.938107218e+02  7.938379187e+02  7.938418094e+02  7.937811771e+02  7.938032968e+02  7.937984969e+02
 7.938003745e+02  7.938249555e+02  7.937834359e+02  7.938013265e+02  7.938195321e+02  7.938064417e+02
 7.815142713e+02  7.812409487e+02  7.813323992e+02  7.813606014e+02  7.813380845e+02  7.813900567e+02
 7.814076046e+02  7.813421179e+02  7.813855881e+02  7.814373006e+02  7.813255660e+02  7.813211046e+02
 7.812902090e+02  7.812948270e+02  7.813140265e+02  7.813347707e+02  7.813821765e+02  7.813483338e+02
 7.813252234e+02  7.813818228e+02  7.813430669e+02  7.813348150e+02  7.813135825e+02  7.812723508e+02
 7.812883078e+02  7.812840456e+02  7.813010657e+02  7.813468941e+02  7.814259919e+02  7.813264430e+02
 7.812571208e+02  7.812230225e+02  7.812665148e+02  7.812943642e+02  7.812650219e+02  7.812715271e+02
 7.813050436e+02  7.811982557e+02  7.822038719e+02  7.821011153e+02  7.822017973e+02  7.822196915e+02
 7.822052898e+02  7.822322279e+02  7.822482680e+02  7.822400206e+02  7.821843589e+02  7.822173432e+02
 7.821512555e+02  7.822034094e+02  7.822000571e+02  7.821756604e+02  7.821198343e+02  7.821965918e+02
 7.822018382e+02  7.822065300e+02  7.821767500e+02  7.821900706e+02  7.821699671e+02  7.821626629e+02
 7.822081716e+02  7.822130089e+02  7.822062362e+02  7.821914358e+02  7.821765420e+02  7.821625510e+02
 7.821196146e+02  7.821956052e+02  7.822019343e+02  7.820945046e+02  7.821504733e+02  7.821532284e+02
 7.821302702e+02  7.820840158e+02  7.821710269e+02  7.821506085e+02  7.821679460e+02  7.821775058e+02
 7.821712069e+02  7.821653255e+02  7.940282105e+02  7.939875443e+02  7.940731701e+02  7.940310381e+02
 7.940433583e+02  7.940171810e+02  7.940242804e+02  7.940222407e+02  7.940135092e+02  7.940765807e+02
 7.939800067e+02  7.940403167e+02  7.940051884e+02  7.939971230e+02  7.939905557e+02  7.940751907e+02
 7.940241288e+02  7.940157495e+02  7.940241324e+02  7.939998351e+02  7.939973423e+02  7.939821266e+02
 7.940088288e+02  7.940107524e+02  7.940082662e+02  7.940050982e+02  7.940023564e+02  7.939977834e+02
 7.939944102e+02  7.940759636e+02  7.940065461e+02  7.939496773e+02  7.940215649e+02  7.939900120e+02
 7.939818135e+02  7.939779639e+02  7.940650635e+02  7.940327781e+02  7.939940307e+02  7.939957078e+02
 7.939964137e+02  7.939900146e+02  6.893566302e+02  6.930615240e+02  6.993930451e+02  7.076264177e+02
 7.152555058e+02  7.219603811e+02  7.281481157e+02  7.341222632e+02  7.403106696e+02  7.470309151e+02
 7.539902478e+02  7.608375058e+02  7.668707383e+02  7.731434965e+02  6.902555581e+02  6.939853506e+02
 7.004715048e+02  7.086207968e+02  7.161842891e+02  7.228251061e+02  7.289298344e+02  7.348487551e+02
 7.410827921e+02  7.476323670e+02  7.543366128e+02  7.608447465e+02  7.667941718e+02  7.731887240e+02
 6.905847239e+02  6.941133380e+02  6.999930330e+02  7.072611343e+02  7.145231934e+02  7.213722858e+02
 7.277430831e+02  7.339269567e+02  7.402637047e+02  7.469709024e+02  7.538523158e+02  7.606187991e+02
 7.670556848e+02  7.738651601e+02  6.915059227e+02  6.950863183e+02  7.010302212e+02  7.083119603e+02
 7.155045703e+02  7.221867823e+02  7.284710614e+02  7.346114404e+02  7.409311026e+02  7.474881534e+02
 7.541579132e+02  7.607225752e+02  7.670936710e+02  7.740432075e+02  7.939584634e+02  7.939680606e+02
 7.939157504e+02  7.938728523e+02  7.938649272e+02  7.938564772e+02  7.936928063e+02  7.927355908e+02
 7.857214452e+02  7.856979490e+02  7.864324940e+02  7.857470401e+02  7.859088898e+02  7.861023026e+02
 7.864230850e+02  7.860912893e+02  7.861688634e+02  7.863866258e+02  7.857286410e+02  7.924204688e+02
 7.936554044e+02  7.938318382e+02  7.938576832e+02  7.938729341e+02  7.939079916e+02  7.939493452e+02
 7.939447822e+02  7.805938801e+02  7.814459337e+02  7.815712396e+02  7.815895394e+02  7.816385872e+02
 7.817315942e+02  7.818859703e+02  7.818945954e+02  7.775676030e+02  7.771362671e+02  7.774196968e+02
 7.776397091e+02  7.772572631e+02  7.773857389e+02  7.770619510e+02  7.772999984e+02  7.773589852e+02
 7.772668069e+02  7.774569278e+02  7.818529922e+02  7.819380215e+02  7.817777070e+02  7.816358156e+02
 7.816133904e+02  7.816615931e+02  7.815159670e+02  7.806666307e+02  7.802620808e+02  7.766204519e+02
 7.752332229e+02  7.752069658e+02  7.752540021e+02  7.752403775e+02  7.753378755e+02  7.767714096e+02
 7.805041316e+02  7.724049569e+02  7.707567021e+02  7.738189268e+02  7.720988901e+02  7.690505730e+02
 7.687704936e+02  7.687134993e+02  7.687983944e+02  7.688141808e+02  7.732750174e+02  7.702156300e+02
 7.775234499e+02  7.774096300e+02  7.774401792e+02  7.774741768e+02  7.774421527e+02  7.763873895e+02
 7.771788896e+02  7.777718244e+02  7.778728168e+02  7.778160173e+02  7.777449525e+02  7.776370088e+02
 7.766583446e+02  7.774308546e+02  7.777699898e+02  7.778485616e+02  7.778389064e+02  7.777536403e+02
 7.776459467e+02  7.775365483e+02  7.775405308e+02  7.775434703e+02  7.775449862e+02  7.775374694e+02
 7.775031936e+02  7.775223123e+02  7.777827912e+02  7.776608288e+02  7.805066025e+02  7.792114684e+02
 7.784696709e+02  7.780918542e+02  7.778909493e+02  7.776700140e+02  7.777888858e+02  7.805412253e+02
 7.792452503e+02  7.785329096e+02  7.781342307e+02  7.779042404e+02  7.778425581e+02  7.778486128e+02
 7.778244293e+02  7.778303818e+02  7.778319324e+02  7.778353297e+02  7.778287682e+02  7.778374815e+02
 7.778402148e+02  7.778341358e+02  7.778424641e+02  7.769625837e+02  7.770619397e+02  7.774292546e+02
 7.774118894e+02  5.736425845e+02  5.468944812e+02  5.586954376e+02  5.782676261e+02  5.745830679e+02
 5.739122550e+02  5.779345785e+02  5.682783818e+02  5.772695306e+02  5.737082044e+02  5.589962252e+02
 5.479820066e+02  5.609398662e+02  5.593278588e+02  6.457648499e+02  6.298035580e+02  6.168597470e+02
 6.079648250e+02  6.085301851e+02  6.185331050e+02  6.310490370e+02  6.466496260e+02  6.493425079e+02
 6.491241662e+02  6.497645083e+02  6.492705535e+02  6.503371624e+02  6.495086306e+02  6.486219479e+02
 6.493836093e+02  6.501278423e+02  6.504164615e+02  6.501493887e+02  6.387232032e+02  6.275343076e+02
 6.213740352e+02  6.188377964e+02  6.220293335e+02  6.297815881e+02  6.405760784e+02  6.417715349e+02
 6.330171513e+02  6.351147511e+02  6.438465938e+02  6.425184576e+02  6.411398116e+02  6.398242798e+02
 6.290973171e+02  6.326321242e+02  6.374568560e+02  6.388977988e+02  6.357296496e+02  6.387806183e+02
 6.365932079e+02  6.361269218e+02  6.366289433e+02  6.399197727e+02  6.411999526e+02  6.365239791e+02
 6.383655903e+02  6.379269838e+02  6.405430320e+02  6.387040899e+02  6.374397360e+02  7.017309006e+02
 7.014087019e+02  7.018106236e+02  7.014582655e+02  7.019193303e+02  7.015683012e+02  7.019576057e+02
 7.017373608e+02  7.020830634e+02  7.018347489e+02  7.021698910e+02  7.019065048e+02  7.022089630e+02
 7.019128064e+02  7.018580354e+02  7.022055039e+02  7.014815384e+02  7.009765028e+02  7.013826418e+02
 7.010883653e+02  7.014570892e+02  7.011865448e+02  7.015294346e+02  7.012600538e+02  7.016708784e+02
 7.013602102e+02  7.017867370e+02  7.014499826e+02  7.018673425e+02  7.014812737e+02  7.018943616e+02
 7.014327097e+02  7.018020093e+02  7.020195173e+02  7.021556907e+02  7.022566516e+02  7.023082715e+02
 7.018934982e+02  7.010999739e+02  7.012998081e+02  7.014375002e+02  7.015183024e+02  7.015911854e+02
 7.017797725e+02  7.014517562e+02  7.015101153e+02  7.015404711e+02  7.015558785e+02  7.015790373e+02
 7.015965152e+02  7.015964772e+02  7.015976604e+02  7.016003839e+02  7.016230778e+02  7.016520883e+02
 7.016923965e+02  7.017381247e+02  7.017838799e+02  7.018213471e+02  7.018459871e+02  7.018571253e+02
 7.018803247e+02  7.019096846e+02  7.019297164e+02  7.019472915e+02  7.019609267e+02  7.019819398e+02
 7.020029239e+02  7.020139292e+02  7.020104987e+02  7.020153917e+02  7.020239135e+02  7.020327034e+02
 7.020258908e+02  7.020030675e+02  7.019783193e+02  7.022991576e+02  7.016372425e+02  7.010849351e+02
 6.575745105e+02  6.583635504e+02  6.501248118e+02  6.584891077e+02  6.445918273e+02  6.457356316e+02
 6.453226036e+02  6.469853189e+02  6.486142478e+02  6.581193002e+02  6.586064854e+02  6.450471874e+02
 6.540085353e+02  6.516585803e+02  6.514933087e+02  6.540433382e+02  7.032873285e+02  6.855203678e+02
 6.812934720e+02  6.552458097e+02  6.627981224e+02  6.843156560e+02  6.782797048e+02  6.697578669e+02
 6.639418056e+02  6.974173788e+02  6.886525570e+02  6.744624944e+02  6.729385827e+02  6.639100006e+02
 6.619748128e+02  6.568388898e+02  6.457646162e+02  6.449091286e+02  6.461511148e+02  6.468772590e+02
 6.464367738e+02  6.473975222e+02  6.582121744e+02  6.628796452e+02  6.649571561e+02  6.678082395e+02
 6.674488649e+02  6.673802003e+02  6.671626755e+02  6.670518906e+02  6.669099392e+02  6.674563084e+02
 6.672067989e+02  6.674121336e+02  6.684930520e+02  6.684618523e+02  6.675333753e+02  6.665585632e+02
 6.679661205e+02  6.685232866e+02  6.678434244e+02  6.679789814e+02  6.696351279e+02  6.679379600e+02
 6.685054669e+02  6.691262184e+02  6.624870423e+02  6.602981215e+02  6.513791082e+02  6.483736680e+02
 6.613216425e+02  6.530965125e+02  6.633489310e+02  6.625854243e+02  6.567591749e+02  6.630202429e+02
 6.596841848e+02  6.503387704e+02  6.516147826e+02  6.628137698e+02  6.551815661e+02  6.632402162e+02
 6.630096233e+02  6.629709270e+02  6.628114955e+02  6.640990235e+02  6.629160731e+02  6.629633363e+02
 6.633801214e+02  6.631319364e+02  6.632749474e+02  6.629261830e+02  6.628870052e+02  6.638678350e+02
 6.631925732e+02  6.639814352e+02  6.636681811e+02  6.619420857e+02  6.630480332e+02  6.627037329e+02
 6.505296838e+02  6.518262518e+02  6.604536283e+02  6.637750266e+02  6.535226919e+02  6.525326607e+02
 6.620384267e+02  6.625613216e+02  6.624679855e+02  6.563780090e+02  6.622972033e+02  6.620689461e+02
 6.620134769e+02  6.627299574e+02  6.624221497e+02  6.625978880e+02  6.622598410e+02  6.604581360e+02
 6.628687569e+02  6.547233585e+02  6.589815389e+02  6.616446181e+02  6.617478976e+02  6.570995780e+02
 6.624452780e+02  6.625304016e+02  6.616957272e+02  6.560295204e+02  6.594006293e+02  6.576515056e+02
 6.623097715e+02  6.620210467e+02  6.612194839e+02  6.614855870e+02  6.586209356e+02  6.601228927e+02
 6.613110799e+02  6.609591083e+02  6.601013372e+02  6.612017463e+02  6.666956845e+02  6.768643985e+02
 6.835258450e+02  6.873637376e+02  6.900674913e+02  6.934116574e+02  6.580516970e+02  6.688466473e+02
 7.176461184e+02  7.161339196e+02  7.136066742e+02  7.085447887e+02  6.991029863e+02  6.848653788e+02
 6.696431914e+02  6.693360878e+02  6.713160760e+02  6.743491797e+02  6.717684239e+02  6.721956208e+02
 6.901410621e+02  7.032243766e+02  7.106346716e+02  7.146695192e+02  7.169632090e+02  7.181669204e+02
 7.182138709e+02  7.179629098e+02  7.182623881e+02  7.183998531e+02  7.176676295e+02  7.177587251e+02
 7.175443642e+02  7.175839060e+02  7.179519556e+02  7.181027923e+02  7.178711704e+02  7.184568713e+02
 7.187560067e+02  7.172297688e+02  7.178966643e+02  7.177613656e+02  7.180241623e+02  7.181815170e+02
 7.175040384e+02  7.180157762e+02  7.181755507e+02  7.178925315e+02  7.176300304e+02  7.175641979e+02
 7.180489934e+02  7.157006787e+02  7.126736587e+02  7.074707545e+02  6.971519172e+02  6.842436411e+02
 6.880800409e+02  7.173181907e+02  6.867827438e+02  6.992548052e+02  7.087374376e+02  7.137860840e+02
 7.165357826e+02  7.174390403e+02  7.176121986e+02  6.880536982e+02  7.175209477e+02  7.172097586e+02
 7.174318939e+02  7.174419738e+02  7.173378557e+02  7.174345484e+02  7.176677441e+02  7.177040144e+02
 7.175447700e+02  7.174338197e+02  7.176062137e+02  6.866789613e+02  7.179159024e+02  7.179205630e+02
 6.935017527e+02  7.173601342e+02  7.174355436e+02  7.175101708e+02  7.179049921e+02  7.175585741e+02
 7.179226295e+02  7.176577488e+02  7.131318684e+02  7.073461196e+02  6.992240202e+02  6.992315890e+02
 7.162919596e+02  7.162646920e+02  7.160849813e+02  7.161520460e+02  6.990184042e+02  7.076059167e+02
 7.128529373e+02  7.159996095e+02  7.159075352e+02  7.163170194e+02  7.169536070e+02  7.156857316e+02
 7.161602350e+02  7.156537678e+02  7.163648345e+02  7.161835906e+02  7.164569208e+02  7.160030060e+02
 7.162446456e+02  7.155185854e+02  6.994427696e+02  7.007280859e+02  7.023289208e+02  7.159473905e+02
 7.062539187e+02  7.158900825e+02  7.081310137e+02  7.132150816e+02  7.137145745e+02  7.142020559e+02
 7.131120381e+02  7.140533027e+02  7.096221193e+02  7.122786363e+02  7.131132378e+02  7.120859031e+02
 7.132341645e+02  7.147477200e+02  7.099016973e+02  7.074268697e+02  7.144323967e+02  7.142889053e+02
 7.070062902e+02  7.101288563e+02  7.050215154e+02  7.005132959e+02  7.005180826e+02  7.011448464e+02
 7.008858141e+02  7.012004083e+02  7.006675736e+02  7.010690241e+02  7.012014056e+02  7.014770674e+02
 7.012386546e+02  7.014033600e+02  7.012136949e+02  7.008425396e+02  7.005032389e+02  7.003746613e+02
 7.015914354e+02  7.017149435e+02  7.007814835e+02  7.014166942e+02  7.007761130e+02  7.018248629e+02
 7.014016452e+02  7.017405979e+02  7.015078534e+02  7.065671816e+02  6.962024183e+02  6.934746583e+02
 6.761486605e+02  6.757060192e+02  6.766120719e+02  6.758255311e+02  6.863257942e+02  6.884334118e+02
 6.693308061e+02  6.757206003e+02  6.687188170e+02  6.729448321e+02  6.718200530e+02  6.962052043e+02
 6.948688307e+02  6.945534581e+02  6.892117444e+02  6.929400740e+02  6.892149983e+02  6.682059546e+02
 6.817329090e+02  6.818490692e+02  6.904577724e+02  7.023837048e+02  6.900916322e+02  6.893164411e+02
 6.888666741e+02  6.867154572e+02  6.883484599e+02  6.894957355e+02  7.024733435e+02  7.031549186e+02
 7.038553097e+02  7.057769957e+02  7.054111321e+02  7.069683103e+02  7.015328820e+02  6.953375152e+02
 6.980591458e+02  6.962316865e+02  7.263870139e+02  7.262318817e+02  7.259685501e+02  7.259837180e+02
 7.260007552e+02  7.260129087e+02  7.260070363e+02  7.260186743e+02  7.260150847e+02  7.260264403e+02
 7.260357661e+02  7.260314765e+02  7.260530475e+02  7.260790780e+02  7.260967563e+02  7.261028967e+02
 7.261257225e+02  7.265150451e+02  7.263394122e+02  7.263559095e+02  7.263691841e+02  7.263635722e+02
 7.263681996e+02  7.263622044e+02  7.263731264e+02  7.263748352e+02  7.263635446e+02  7.263558184e+02
 7.263666148e+02  7.263918507e+02  7.264002502e+02  7.263954088e+02  7.263934289e+02  7.263898366e+02
 7.263602742e+02  7.263586965e+02  7.263760507e+02  7.263965673e+02  7.264085241e+02  7.264386493e+02
 7.264769387e+02  7.264848615e+02  7.264875909e+02  7.263812985e+02  7.259630313e+02  7.263769376e+02
 7.265267763e+02  7.263511123e+02  7.262332154e+02  7.262771833e+02  7.263669912e+02  7.263105536e+02
 7.264286715e+02  7.264135166e+02  7.264101338e+02  7.264048070e+02  7.264125469e+02  7.264100720e+02
 7.264117562e+02  7.264113525e+02  7.264090260e+02  7.264217542e+02  7.264322419e+02  7.264100006e+02
 7.264302891e+02  7.264373900e+02  7.264228977e+02  7.264369433e+02  7.263875725e+02  7.264499028e+02
 7.264644682e+02  7.265006796e+02  7.265289286e+02  7.264205453e+02  7.262829216e+02  7.263115910e+02
 7.263179827e+02  7.262964694e+02  7.263280289e+02  7.263089836e+02  7.263071427e+02  7.263438215e+02
 7.263686600e+02  7.263704039e+02  7.265281966e+02  7.262840964e+02  7.264913454e+02  7.268961879e+02
 7.268415397e+02  7.266602139e+02  7.263059046e+02  7.262425189e+02  7.262395595e+02  7.262835314e+02
 7.263062722e+02  7.262661357e+02  7.262571379e+02  7.262592415e+02  7.262851991e+02  7.263027295e+02
 7.263065884e+02  7.263167228e+02  7.263473307e+02  7.263923274e+02  7.264456719e+02  7.265018103e+02
 7.268529634e+02  7.270196759e+02  7.268826815e+02  7.268867642e+02  7.268821507e+02  7.268873004e+02
 7.268989600e+02  7.268781216e+02  7.269005334e+02  7.269156229e+02  7.269167977e+02  7.269066312e+02
 7.268936805e+02  7.269252463e+02  7.269612269e+02  7.269986304e+02  7.270261504e+02  7.268845892e+02
 7.268838310e+02  7.268776967e+02  7.268980675e+02  7.268834474e+02  7.268881156e+02  7.269115658e+02
 7.269177841e+02  7.269153060e+02  7.268973285e+02  7.269067454e+02  7.269459044e+02  7.269760066e+02
 7.270202346e+02  7.268030423e+02  7.265840059e+02  7.265585277e+02  7.266731164e+02  7.268934421e+02
 7.267873990e+02  7.270012668e+02  7.268869658e+02  7.266045285e+02  7.268858613e+02  7.268874042e+02
 7.268932978e+02  7.268929272e+02  7.269024933e+02  7.269055949e+02  7.268870235e+02  7.269166264e+02
 7.268958994e+02  7.269221858e+02  7.269108048e+02  7.269129079e+02  7.269321516e+02  7.269042087e+02
 7.269207901e+02  7.269350432e+02  7.269012942e+02  7.269684253e+02  7.269221143e+02  7.270116906e+02
 7.269626086e+02  7.269861017e+02  7.265814724e+02  7.268902466e+02  7.265865008e+02  7.265752518e+02
 7.265939484e+02  7.266251985e+02  7.266354787e+02  7.266332859e+02  7.266446733e+02  7.266736261e+02
 7.267126707e+02  7.268912325e+02  7.268931763e+02  7.269236454e+02  7.268038319e+02  7.268186782e+02
 7.268165262e+02  7.268639957e+02  7.268125059e+02  7.267882101e+02  7.268021262e+02  7.268375686e+02
 7.268543060e+02  7.268406840e+02  7.268420558e+02  7.268131100e+02  7.269023439e+02  7.586528746e+02
 7.541864119e+02  7.007675546e+02  7.419907716e+02  6.903306022e+02  6.923756091e+02  6.898209624e+02
 6.925478029e+02  7.061311847e+02  7.513678747e+02  7.577811551e+02  6.901467534e+02  7.406753022e+02
 7.082470856e+02  7.149710679e+02  7.201480087e+02  7.551129949e+02  7.520649454e+02  7.157553887e+02
 7.399854859e+02  7.365138792e+02  7.306069242e+02  7.528634858e+02  7.385534836e+02  7.254553574e+02
 7.105650765e+02  6.949941071e+02  6.941936830e+02  6.942309403e+02  6.956688668e+02  6.932993637e+02
 6.959562179e+02  7.195787069e+02  7.277236201e+02  7.263943225e+02  7.267013094e+02  7.261661445e+02
 7.265680253e+02  7.279046915e+02  7.264933740e+02  7.249461249e+02  7.273877811e+02  7.267933740e+02
 7.267608590e+02  7.275793029e+02  7.255878546e+02  7.194894494e+02  7.016661537e+02  7.108737668e+02
 7.222919603e+02  7.167060737e+02  7.079011948e+02  7.085221688e+02  7.220585299e+02  7.167004604e+02
 7.211167207e+02  7.210279134e+02  7.221741027e+02  7.198573106e+02  7.216437797e+02  7.089429558e+02
 7.072788349e+02  7.221830360e+02  7.112943438e+02  7.212053759e+02  7.084274298e+02  7.179186696e+02
 7.168383754e+02  7.157191195e+02  7.150623201e+02  7.160361752e+02  7.272270734e+02  7.438138886e+02
 7.479537412e+02  7.117366756e+02  7.504541008e+02  7.417062221e+02  7.723487358e+02  7.715600072e+02
 7.701134951e+02  7.706634458e+02  7.704906739e+02  7.692063833e+02  7.691471142e+02  7.693862617e+02
 7.692847447e+02  7.699907723e+02  7.714880593e+02  7.718938047e+02  7.722378236e+02  7.722208143e+02
 7.718409882e+02  7.715325322e+02  7.717587522e+02  7.715331390e+02  7.716354028e+02  7.714200240e+02
 7.688433571e+02  7.720355729e+02  7.713198736e+02  7.714834743e+02  7.722939595e+02  7.716974923e+02
 7.712169360e+02  7.720694837e+02  7.713939820e+02  7.698844282e+02  7.697700129e+02  7.710410223e+02
 7.721179026e+02  7.701651197e+02  7.719718062e+02  7.723445694e+02  7.722663324e+02  7.719764464e+02
 7.719131088e+02  7.722618589e+02  7.721752898e+02  7.721875545e+02  7.721632921e+02  7.724984592e+02
 7.700449074e+02  7.703369597e+02  7.717923763e+02  7.700643091e+02  7.722766707e+02  7.712087686e+02
 7.712494996e+02  7.713274285e+02  7.708143147e+02  7.712733252e+02  7.714390974e+02  7.580042845e+02
 7.521107008e+02  7.511837774e+02  7.510875440e+02  7.508969551e+02  7.512095541e+02  7.513549835e+02
 7.509166552e+02  7.511652581e+02  7.519031289e+02  7.513199924e+02  7.517211124e+02  7.508952098e+02
 7.507698281e+02  7.508979068e+02  7.513500747e+02  7.507613058e+02  7.505040030e+02  7.570347173e+02
 7.460001167e+02  7.468433174e+02  7.512131025e+02  7.509637364e+02  7.512707733e+02  7.509430814e+02
 7.512688314e+02  7.509464131e+02  7.512824656e+02  7.509558613e+02  7.512832206e+02  7.509549595e+02
 7.509475857e+02  7.509398186e+02  7.505846209e+02  7.506607005e+02  7.506285298e+02  7.505832520e+02
 7.506312091e+02  7.505855717e+02  7.506438322e+02  7.505904153e+02  7.506620080e+02  7.506147245e+02
 7.513343279e+02  7.513212324e+02  7.512079596e+02  7.513166636e+02  7.512287754e+02  7.513374644e+02
 7.512336629e+02  7.513405412e+02  7.512384865e+02  7.509553696e+02  7.506946173e+02  7.506700483e+02
 7.506846790e+02  7.507052422e+02  7.510168199e+02  7.512232087e+02  7.506162893e+02  7.508167288e+02
 7.500186782e+02  7.501070637e+02  7.501218766e+02  7.501204394e+02  7.501253043e+02  7.501228859e+02
 7.501208562e+02  7.501051633e+02  7.501182702e+02  7.501224547e+02  7.501257158e+02  7.501237923e+02
 7.501378809e+02  7.501453447e+02  7.501462025e+02  7.501474149e+02  7.501589759e+02  7.501556299e+02
 7.501638628e+02  7.501584970e+02  7.501615461e+02  7.501530789e+02  7.501445685e+02  7.501293355e+02
 7.500070237e+02  7.499414068e+02  7.499634192e+02  7.499669670e+02  7.499730126e+02  7.499596226e+02
 7.499709960e+02  7.499786469e+02  7.499808083e+02  7.499612748e+02  7.499249274e+02  7.499552282e+02
 7.499606009e+02  7.499810846e+02  7.499792262e+02  7.499813723e+02  7.499850799e+02  7.500086716e+02
 7.500173219e+02  7.500147905e+02  7.500070957e+02  7.500153101e+02  7.500224364e+02  7.500305577e+02
 7.500209137e+02  7.500213724e+02  7.500030549e+02  7.500056765e+02  7.500008221e+02  7.500968804e+02
 7.500620041e+02  7.500564260e+02  7.500472147e+02  7.500529897e+02  7.500402386e+02  7.500617669e+02
 7.500584081e+02  7.500438459e+02  7.500547359e+02  7.500699640e+02  7.500600645e+02  7.500809656e+02
 7.500922965e+02  7.501039342e+02  7.500826272e+02  7.501008483e+02  7.501097849e+02  7.500928947e+02
 7.500916271e+02  7.500633284e+02  7.500961909e+02  7.500727252e+02  7.500963012e+02  7.500909351e+02
 7.500868992e+02  7.508945318e+02  7.508238656e+02  7.516146971e+02  7.516812960e+02  7.517489178e+02
 7.517422020e+02  7.517527964e+02  7.517680297e+02  7.517513777e+02  7.517274549e+02  7.517280403e+02
 7.517362718e+02  7.517366124e+02  7.517280749e+02  7.517460143e+02  7.517524707e+02  7.517401615e+02
 7.517630631e+02  7.517499702e+02  7.517708258e+02  7.517581191e+02  7.517674473e+02  7.517606765e+02
 7.517749388e+02  7.517557146e+02  7.517633113e+02  7.517702009e+02  7.517576434e+02  7.516856711e+02
 7.516181522e+02  7.515662030e+02  7.515828249e+02  7.515717107e+02  7.515890975e+02  7.515880120e+02
 7.515684340e+02  7.515815438e+02  7.515929210e+02  7.515971702e+02  7.516133826e+02  7.516268399e+02
 7.516232755e+02  7.516294932e+02  7.516275342e+02  7.516356508e+02  7.516325287e+02  7.515813731e+02
 7.515823998e+02  7.515782768e+02  7.515902851e+02  7.515785168e+02  7.515693644e+02  7.515905107e+02
 7.516011699e+02  7.516014808e+02  7.516240655e+02  7.516267296e+02  7.516246135e+02  7.516309558e+02
 7.516333308e+02  7.516313886e+02  7.516288623e+02  7.516547153e+02  7.516611659e+02  7.516931230e+02
 7.516598746e+02  7.517028354e+02  7.516253892e+02  7.516384773e+02  7.516494798e+02  7.516290785e+02
 7.516270390e+02  7.516367910e+02  7.516497821e+02  7.516393941e+02  7.516491761e+02  7.516621489e+02
 7.516450867e+02  7.516529277e+02  7.516563443e+02  7.516798112e+02  7.516677788e+02  7.516842116e+02
 7.516761023e+02  7.516745439e+02  7.516717311e+02  7.516877828e+02  7.516873638e+02  7.516918912e+02
 7.516864441e+02  7.516764860e+02  7.516764600e+02  7.516949226e+02  7.516906101e+02  7.516949304e+02
 7.516895876e+02  7.509694044e+02  7.506963154e+02  7.507289742e+02  7.507308906e+02  7.507299156e+02
 7.507143714e+02  7.507401325e+02  7.507328102e+02  7.507380329e+02  7.507184655e+02  7.506856407e+02
 7.507115802e+02  7.507237011e+02  7.507331401e+02  7.507396678e+02  7.507490857e+02  7.507589169e+02
 7.507361524e+02  7.507654690e+02  7.507892744e+02  7.507854722e+02  7.507852550e+02  7.507741710e+02
 7.507862989e+02  7.507734362e+02  7.507734809e+02  7.507929217e+02  7.507803430e+02  7.507903153e+02
 7.507851277e+02  7.507765280e+02  7.507662366e+02  7.507425991e+02  7.510444315e+02  7.504500922e+02
 7.503750947e+02  6.162121307e+01  6.146783144e+01  6.099500481e+01  6.148733150e+01  1.837311069e+02
 2.947997578e+02  3.657842748e+02  3.655109713e+02  1.888726983e+02  2.474278089e+02  3.005167156e+02
 3.478129817e+02  1.516176364e+02  1.523243782e+02  1.551064008e+02  1.662241717e+02  2.401565767e+02
 3.444949146e+02  3.644391895e+02  3.694596891e+02  3.218018550e+02  2.631271876e+02  3.259148520e+02
 2.041079950e+02  2.240829130e+02  2.830470654e+02  3.312659075e+02  1.911663668e+02  2.041649843e+02
 2.481201470e+02  2.827361520e+02  2.346603675e+02  2.000000000e+01  2.000000000e+01  2.000000000e+01
 2.000000000e+01  2.000000000e+01  2.000000000e+01  2.000000000e+01  2.000000000e+01  2.000000000e+01
 2.000000000e+01  2.000000000e+01  2.000000000e+01  2.000000000e+01  2.000000000e+01  2.000000000e+01
 7.877888407e+01  1.833969234e+02  2.899726069e+02  3.533617936e+02  1.305741534e+02  2.153994122e+02
 1.308042345e+02  2.368909170e+02  4.168665263e+02  4.004986547e+02  4.168288680e+02  4.199974347e+02
 4.232488445e+02  4.186821672e+02  4.260547043e+02  4.008968149e+02  3.995991740e+02  4.000614468e+02
 3.983779691e+02  3.988890201e+02  4.126317406e+02  4.027817084e+02  4.180944053e+02  4.069873743e+02
 4.083483128e+02  1.326112673e+02  2.920147307e+02  3.571610615e+02  1.345600956e+02  1.882512650e+02
 2.499312259e+02  3.106308532e+02  8.224114450e+01  2.167741972e+02  1.503156329e+02  2.211496871e+02
 2.940603406e+02  3.608354258e+02  3.641176073e+02  3.656120440e+02  3.619527318e+02  3.637277347e+02
 3.616881067e+02  3.617740838e+02  3.552367879e+02  3.514604200e+02  3.622353803e+02  1.527508891e+02
 2.959603977e+02  8.876321604e+01  8.377098767e+01  8.551422383e+01  8.561736280e+01  9.398390498e+01
 2.239244154e+02  8.682697602e+01  8.549652592e+01  8.538999291e+01  8.915969036e+01  9.152259539e+01
 2.716401321e+02  1.702662102e+02  2.986694061e+02  2.906625998e+02  2.893551690e+02  2.893256116e+02
 2.893496256e+02  2.854512402e+02  2.620384942e+02  2.765228394e+02  1.794431153e+02  1.518357577e+02
 1.438777047e+02  1.518781962e+02  1.644330689e+02  1.519642474e+02  1.523513554e+02  1.523379325e+02
 2.201719489e+02  2.204432758e+02  2.199991642e+02  2.169994150e+02  2.199726052e+02  2.192969874e+02
 2.000000000e+01  8.088964154e+01  4.798732625e+01  4.700239272e+02  5.814200823e+02  6.393245623e+02
 6.666674111e+02  6.813070608e+02  4.078551902e+02  4.128039456e+02  4.117888339e+02  4.092183236e+02
 4.091474974e+02  6.872585761e+02  6.871452887e+02  6.874363953e+02  6.874935814e+02  6.873951343e+02
 6.875285470e+02  6.875507943e+02  6.875452386e+02  6.876762207e+02  6.876413308e+02  6.875714561e+02
 6.877036992e+02  6.877920562e+02  6.879301811e+02  6.880371553e+02  6.879239404e+02  6.880220754e+02
 6.878736277e+02  6.879858902e+02  6.884897424e+02  4.424111161e+02  4.938656043e+02  5.865237459e+02
 6.181849597e+02  6.412247331e+02  6.576968813e+02  6.689762599e+02  6.819658401e+02  6.861665284e+02
 5.266633445e+02  4.241601780e+02  6.168120113e+02  6.549403095e+02  6.749166524e+02  6.860388430e+02
 6.871949785e+02  6.872142493e+02  6.875306769e+02  6.874565350e+02  6.874938553e+02  6.875764080e+02
 6.874965562e+02  6.876101005e+02  6.877959223e+02  6.876037294e+02  6.875867965e+02  6.876284258e+02
 6.878592821e+02  6.880366983e+02  6.880330843e+02  6.879857390e+02  6.879019454e+02  6.879306489e+02
 5.459349459e+02  6.768257082e+02  6.843977434e+02  5.738455742e+02  6.719156843e+02  6.326261490e+02
 6.750839897e+02  4.338338747e+02  4.460245618e+02  4.434600854e+02  4.324334730e+02  4.699192023e+02
 6.844272625e+02  6.833599722e+02  6.845948528e+02  6.845293731e+02  6.844078322e+02  6.845449887e+02
 6.845495233e+02  6.847525170e+02  6.848779183e+02  6.848489856e+02  6.846617220e+02  6.846871998e+02
 6.849723778e+02  6.851562466e+02  6.850193893e+02  6.850398210e+02  6.855598268e+02  6.846595324e+02
 6.625728498e+02  6.845081850e+02  6.032351345e+02  4.736600479e+02  6.845811529e+02  6.311533209e+02
 6.505614997e+02  6.656876421e+02  6.503472536e+02  5.628965495e+02  6.844851609e+02  6.090999090e+02
 6.846134377e+02  4.730932605e+02  6.844551400e+02  6.795443661e+02  6.844468933e+02  6.843878371e+02
 6.846521075e+02  6.848359246e+02  6.848312251e+02  6.848147091e+02  6.846617029e+02  6.847448835e+02
 6.851242526e+02  6.851064155e+02  6.850396241e+02  6.850571018e+02  5.372733982e+02  5.272906912e+02
 6.803932358e+02  6.798596969e+02  4.862408576e+02  5.955936734e+02  6.801835161e+02  6.802087959e+02
 6.800168711e+02  6.690330856e+02  6.807373256e+02  6.782526655e+02  6.805209424e+02  6.802406223e+02
 6.799909455e+02  6.799502258e+02  6.799686064e+02  6.809001130e+02  6.809387769e+02  6.808100780e+02
 6.800567392e+02  6.802461326e+02  6.418575292e+02  6.578166926e+02  6.802016538e+02  6.805136721e+02
 6.810219906e+02  6.806088890e+02  6.799825777e+02  6.801248863e+02  6.804318622e+02  6.802357895e+02
 6.801933160e+02  5.151566264e+02  5.145981088e+02  6.806546053e+02  6.808029754e+02  6.221568139e+02
 6.122534839e+02  6.798819868e+02  6.802772873e+02  6.804043628e+02  6.686490223e+02  6.594052558e+02
 6.747955598e+02  6.468631924e+02  6.801232090e+02  6.798182478e+02  6.334494374e+02  6.737400003e+02
 5.781203762e+02  6.743156682e+02  6.657087284e+02  6.746638198e+02  6.742649698e+02  6.747413521e+02
 6.745395368e+02  6.740001229e+02  6.749063677e+02  5.840363272e+02  6.750870025e+02  5.629706085e+02
 6.745033412e+02  6.507066910e+02  6.749088186e+02  6.737652407e+02  6.739684018e+02  6.761183028e+02
 6.199903894e+02  6.549708582e+02  6.751860967e+02  6.753486224e+02  6.314563097e+02  6.765332186e+02
 6.746056675e+02  6.745553335e+02  6.751160669e+02  6.739272111e+02  6.748568844e+02  5.493878517e+02
 6.758219851e+02  6.750562288e+02  6.669068737e+02  6.193436062e+02  6.748524338e+02  6.410717374e+02
 6.744158935e+02  6.765805403e+02  6.750511183e+02  6.749409221e+02  6.744226968e+02  5.729392260e+02
 6.674415420e+02  6.465415939e+02  5.870734856e+02  6.595316888e+02  6.119545644e+02  6.658505385e+02
 6.694625742e+02  6.673675162e+02  6.684950183e+02  6.658870368e+02  6.116520093e+02  6.664893851e+02
 6.657642610e+02  6.022251705e+02  6.699072217e+02  6.670607467e+02  6.403115058e+02  6.674220021e+02
 6.409938513e+02  6.682417697e+02  6.670457671e+02  6.663232895e+02  6.658877727e+02  6.686343856e+02
 6.678702736e+02  6.595861254e+02  6.683914711e+02  6.682657318e+02  6.675005170e+02  6.700979116e+02
 6.681665814e+02  6.618622007e+02  6.357027687e+02  6.592072079e+02  6.297084795e+02  6.676894945e+02
 6.541614019e+02  6.677131553e+02  6.378499705e+02  6.546558772e+02  6.571520408e+02  6.572021788e+02
 6.561497360e+02  6.575234839e+02  6.559128681e+02  6.602557184e+02  6.563928100e+02  6.613608064e+02
 6.592649415e+02  6.603850415e+02  6.608949028e+02  6.604956167e+02  6.586235877e+02  6.246850284e+02
 6.557524032e+02  6.588790947e+02  6.606568242e+02  6.488235763e+02  6.491612821e+02  6.493424705e+02
 6.479214997e+02  6.489214216e+02  6.469004782e+02  5.667357198e+02  5.976363891e+02  6.222247496e+02
 6.405416011e+02  6.542282747e+02  6.647077375e+02  6.727172306e+02  6.794234767e+02  6.863271798e+02
 6.879045333e+02  6.886549473e+02  6.885884150e+02  6.884656739e+02  6.884233057e+02  6.885078264e+02
 6.885471751e+02  6.885397431e+02  6.885125714e+02  6.884945080e+02  6.884685348e+02  6.884697966e+02
 6.884575163e+02  6.884455616e+02  6.884628043e+02  6.884958863e+02  6.885366384e+02  6.885793036e+02
 6.886446393e+02  6.887057801e+02  6.887507946e+02  6.887108199e+02  6.886769346e+02  6.886335505e+02
 6.886018344e+02  6.886330327e+02  6.886685953e+02  6.887448012e+02  6.888210425e+02  6.888618286e+02
 6.889005608e+02  6.889532678e+02  6.889643314e+02  6.889710265e+02  6.889371737e+02  6.889405573e+02
 6.889870333e+02  6.890426433e+02  6.891118395e+02  6.892211082e+02  6.893228235e+02  6.894041063e+02
 5.813476306e+02  6.424596284e+02  6.672303620e+02  6.800189705e+02  6.873226950e+02  5.257963256e+02
 5.307870192e+02  5.233641281e+02  5.245832663e+02  5.220839629e+02  5.275153651e+02  6.834561521e+02
 6.747754258e+02  6.569281952e+02  6.200766831e+02  6.845708457e+02  5.369538802e+02  6.887050780e+02
 5.288124187e+02  5.206178139e+02  5.225630461e+02  5.234274666e+02  6.093265661e+02  6.310912441e+02
 6.475447718e+02  6.598645881e+02  6.693410171e+02  6.768705025e+02  5.702537080e+02  6.726025724e+02
 6.874938826e+02  6.873733477e+02  6.873982107e+02  6.876254416e+02  6.875771342e+02  6.875188836e+02
 6.874725454e+02  6.874491733e+02  6.874598719e+02  6.875167378e+02  6.875348616e+02  6.875626303e+02
 6.875694615e+02  6.876560267e+02  6.875951775e+02  6.876342690e+02  6.876949566e+02  6.877651441e+02
 6.877432129e+02  6.876795437e+02  6.876594051e+02  6.876317570e+02  6.876474370e+02  6.877197715e+02
 6.878124056e+02  6.878178012e+02  6.878678174e+02  6.879186961e+02  6.879848861e+02  6.880228648e+02
 6.879929175e+02  6.879818698e+02  6.879442827e+02  6.879837183e+02  6.880174420e+02  6.880112055e+02
 6.881629346e+02  6.881498525e+02  6.880101721e+02  6.638135940e+02  6.355532957e+02  6.109523102e+02
 6.842801649e+02  6.520514176e+02  6.799454846e+02  5.785177148e+02  5.864025087e+02  5.702816830e+02
 5.747411645e+02  5.718094250e+02  5.707068786e+02  5.753967197e+02  5.685351703e+02  5.816026136e+02
 6.866785971e+02  6.876591545e+02  6.853934542e+02  5.822467198e+02  6.774334692e+02  6.825793674e+02
 6.401333425e+02  6.540634216e+02  6.656157679e+02  6.749640313e+02  6.860432636e+02  6.853150486e+02
 6.855304563e+02  6.855455093e+02  6.853016755e+02  6.851187836e+02  6.851230673e+02  6.853168262e+02
 6.853707720e+02  6.853871225e+02  6.853973194e+02  6.854483432e+02  6.854332481e+02  6.854399029e+02
 6.854366312e+02  6.854824843e+02  6.855352232e+02  6.856167669e+02  6.856854839e+02  6.856310235e+02
 6.855934008e+02  6.855634385e+02  6.855636184e+02  6.855976462e+02  6.855677274e+02  6.855851116e+02
 6.855982642e+02  6.856941805e+02  6.857959280e+02  6.858514463e+02  6.856869522e+02  6.856040537e+02
 6.856485126e+02  6.857042998e+02  6.857102738e+02  6.858877634e+02  6.864805814e+02  6.094882474e+02
 6.703947997e+02  6.325889976e+02  6.855504399e+02  6.030830233e+02  6.060777340e+02  6.063256259e+02
 6.104745613e+02  6.814440772e+02  6.035077109e+02  6.144468368e+02  6.039345673e+02  6.158534896e+02
 6.608178313e+02  6.212501999e+02  6.488577979e+02  6.221780494e+02  6.829770099e+02  6.602819889e+02
 6.706391871e+02  6.331701843e+02  6.816386378e+02  6.826315785e+02  6.817433219e+02  6.811891660e+02
 6.810402389e+02  6.815162551e+02  6.818033545e+02  6.817924191e+02  6.816638626e+02  6.816477932e+02
 6.818665535e+02  6.819236190e+02  6.818319562e+02  6.818048523e+02  6.817711193e+02  6.817497752e+02
 6.818985840e+02  6.820620500e+02  6.821103878e+02  6.819770249e+02  6.818506224e+02  6.818783225e+02
 6.820588911e+02  6.819832443e+02  6.817147887e+02  6.816707830e+02  6.819113347e+02  6.820123903e+02
 6.817373842e+02  6.814873970e+02  6.816039734e+02  6.819318130e+02  6.819706827e+02  6.819622046e+02
 6.308640207e+02  6.402421154e+02  6.370554128e+02  6.306651495e+02  6.759948728e+02  6.448165193e+02
 6.339499854e+02  6.310956846e+02  6.408903214e+02  6.311212042e+02  6.428432688e+02  6.502303314e+02
 6.490609681e+02  6.778564793e+02  6.679651418e+02  6.512095799e+02  6.507142458e+02  6.761435147e+02
 6.754262768e+02  6.757674127e+02  6.773939042e+02  6.770498738e+02  6.769061286e+02  6.764054065e+02
 6.766891067e+02  6.776135543e+02  6.776221929e+02  6.769513878e+02  6.767387391e+02  6.768100010e+02
 6.764801512e+02  6.768397958e+02  6.776191253e+02  6.775818224e+02  6.769038659e+02  6.767660662e+02
 6.775222908e+02  6.776191503e+02  6.768980611e+02  6.760919059e+02  6.765834694e+02  6.770038373e+02
 6.765217040e+02  6.757487428e+02  6.757575070e+02  6.764562605e+02  6.776703313e+02  6.549957512e+02
 6.680186241e+02  6.604397786e+02  6.519589030e+02  6.556730668e+02  6.713059306e+02  6.557346809e+02
 6.571992196e+02  6.672358230e+02  6.699094609e+02  6.715089326e+02  6.706175579e+02  6.660675873e+02
 6.715895888e+02  6.731986060e+02  6.722982459e+02  6.684700960e+02  6.709586934e+02  6.703921026e+02
 6.659691849e+02  6.715141074e+02  6.728859590e+02  6.715357622e+02  6.663536553e+02  6.712743190e+02
 6.727988880e+02  6.721021417e+02  6.687702522e+02  6.684896230e+02  6.710915792e+02  6.711162735e+02
 6.684614868e+02  6.676461818e+02  6.685446204e+02  6.628454909e+02  6.567027574e+02  6.643113723e+02
 6.617994899e+02  6.657584162e+02  6.650761107e+02  6.622143792e+02  6.902992546e+02  7.033825268e+02
 7.186975536e+02  7.311382836e+02  7.435112096e+02  7.573605492e+02  7.692378776e+02  7.750108946e+02
 7.739228832e+02  7.738913625e+02  7.740299920e+02  7.740326741e+02  7.740025818e+02  7.739583577e+02
 7.739327123e+02  7.739499856e+02  7.739660434e+02  7.739937543e+02  7.739819290e+02  7.739304020e+02
 7.739056778e+02  7.739770046e+02  7.739213858e+02  7.738726751e+02  7.738048072e+02  7.734493225e+02
 6.914531050e+02  6.972774568e+02  7.053252348e+02  7.133344421e+02  7.203770102e+02  7.266251107e+02
 7.325303239e+02  7.384494064e+02  7.448686673e+02  7.515722705e+02  7.584092134e+02  7.645569711e+02
 7.708335218e+02  6.890612063e+02  6.890291099e+02  6.889536871e+02  6.889768488e+02  6.889912414e+02
 6.889851998e+02  6.889737747e+02  6.889764557e+02  6.890652421e+02  6.888761515e+02  6.888019447e+02
 6.887746488e+02  6.887939328e+02  6.888641511e+02  6.889491702e+02  6.890456468e+02  6.891381116e+02
 6.892139342e+02  6.893271482e+02  6.891307642e+02  6.890474490e+02  6.890040012e+02  6.890266382e+02
 6.890981510e+02  6.891892425e+02  6.892521855e+02  6.892892676e+02  6.893405427e+02  6.895036004e+02
 6.893694375e+02  6.893376451e+02  6.893622795e+02  6.894418594e+02  6.895920119e+02  6.897334437e+02
 6.897265864e+02  6.904414474e+02  6.954385480e+02  7.114838421e+02  7.251272269e+02  7.370576674e+02
 7.504631420e+02  7.636724733e+02  7.740212300e+02  7.721705119e+02  7.738825318e+02  7.739802037e+02
 7.741327003e+02  7.739659097e+02  7.739470364e+02  7.739537623e+02  7.739486088e+02  7.740868405e+02
 7.739823644e+02  7.739699592e+02  7.739157309e+02  7.739280054e+02  7.740548824e+02  7.738698822e+02
 7.738863540e+02  7.734633394e+02  7.744771309e+02  6.993141844e+02  7.684756445e+02  7.340997683e+02
 7.151278242e+02  7.471926274e+02  7.606907190e+02  7.684523623e+02  7.684447619e+02  7.685558278e+02
 7.685723712e+02  7.682331413e+02  7.685670934e+02  7.684967267e+02  7.685221257e+02  7.684614698e+02
 7.684993640e+02  7.684382095e+02  7.685120722e+02  7.685335696e+02  7.685063574e+02  7.684199257e+02
 7.685032630e+02  7.684869483e+02  7.684581699e+02  7.685053932e+02  7.667970291e+02  7.663021499e+02
 7.281850854e+02  7.076865206e+02  7.403103183e+02  6.949736236e+02  7.025365336e+02  7.105980491e+02
 7.179490188e+02  7.244495022e+02  7.304473794e+02  7.361980528e+02  7.421642824e+02  7.486858589e+02
 7.558008734e+02  7.622958005e+02  7.683363179e+02  6.921890603e+02  6.919563801e+02  6.919246809e+02
 6.919650952e+02  6.918303347e+02  6.918456987e+02  6.918031413e+02  6.918544792e+02  6.917857615e+02
 6.915540112e+02  6.914119977e+02  6.914414833e+02  6.914338839e+02  6.916175392e+02  6.917596559e+02
 6.920215124e+02  6.920759794e+02  6.921798721e+02  6.921656722e+02  6.919284068e+02  6.917304625e+02
 6.917706408e+02  6.917761074e+02  6.919780927e+02  6.920488327e+02  6.921224305e+02  6.921080230e+02
 6.923002398e+02  6.922191210e+02  6.921625628e+02  6.921481239e+02  6.921882833e+02  6.924181212e+02
 6.926985244e+02  6.930751258e+02  7.682801999e+02  7.220102431e+02  7.684766957e+02  7.541773121e+02
 7.688170156e+02  7.685507639e+02  7.685036668e+02  7.684281182e+02  7.685236399e+02  7.685350807e+02
 7.684622254e+02  7.684091588e+02  7.685360704e+02  7.684361804e+02  7.685052429e+02  7.682825317e+02
 7.312737434e+02  7.635271218e+02  7.634237405e+02  7.632319840e+02  7.633191982e+02  7.036980176e+02
 7.635019907e+02  7.188194775e+02  7.635054962e+02  7.634103671e+02  7.634295320e+02  7.633264421e+02
 7.633446956e+02  7.634626777e+02  7.634599337e+02  7.635301473e+02  7.633076137e+02  7.633469779e+02
 7.632992198e+02  7.633776353e+02  7.631090733e+02  7.582383099e+02  7.633841425e+02  7.634825080e+02
 7.111017523e+02  7.000358005e+02  7.081768352e+02  7.157488513e+02  7.224422682e+02  7.284204552e+02
 7.342161260e+02  7.400331511e+02  7.456226039e+02  7.521594232e+02  7.595284464e+02  6.968497116e+02
 6.966054082e+02  6.967357687e+02  6.965982650e+02  6.967499694e+02  6.967884517e+02  6.967465879e+02
 6.961767933e+02  6.959623755e+02  6.958830512e+02  6.958873969e+02  6.960122266e+02  6.962780635e+02
 6.968806724e+02  6.971443469e+02  6.971987636e+02  6.972412844e+02  6.969543834e+02  6.964149138e+02
 6.962898747e+02  6.963911187e+02  6.964734359e+02  6.966906477e+02  6.970575568e+02  6.970751703e+02
 6.970535308e+02  6.972243268e+02  6.971184118e+02  6.970256540e+02  6.970549869e+02  6.971968155e+02
 6.975327549e+02  6.982444262e+02  7.624458872e+02  7.634487925e+02  7.251864882e+02  6.970150361e+02
 7.635454971e+02  7.634053264e+02  7.633841836e+02  7.512530787e+02  7.634824489e+02  7.634478864e+02
 7.634168168e+02  7.634376352e+02  7.635115045e+02  7.374151367e+02  7.632978507e+02  7.632960414e+02
 7.639044443e+02  7.440486795e+02  7.633920431e+02  7.579186334e+02  7.584655138e+02  7.584457577e+02
 7.588287804e+02  7.582002595e+02  7.584604807e+02  7.582118831e+02  7.582577270e+02  7.583155909e+02
 7.584859105e+02  7.584455795e+02  7.220057295e+02  7.583147699e+02  7.581773125e+02  7.586872085e+02
 7.581373928e+02  7.579539786e+02  7.060473653e+02  7.138264458e+02  7.206706114e+02  7.267234091e+02
 7.317471975e+02  7.383211645e+02  7.464135935e+02  7.543274952e+02  7.028455985e+02  7.585215780e+02
 7.035945492e+02  7.026956140e+02  7.030184072e+02  7.032569640e+02  7.034525609e+02  7.034063661e+02
 7.029442847e+02  7.024641245e+02  7.023255810e+02  7.023052878e+02  7.023831241e+02  7.025876422e+02
 7.031840771e+02  7.038767689e+02  7.040427790e+02  7.039606454e+02  7.037409532e+02  7.032186613e+02
 7.027658563e+02  7.027571458e+02  7.029648148e+02  7.030226747e+02  7.035268243e+02  7.038414869e+02
 7.037831621e+02  7.038174234e+02  7.038831932e+02  7.037565681e+02  7.036665915e+02  7.037161221e+02
 7.042208235e+02  7.583950664e+02  7.584726394e+02  7.584103619e+02  7.580857866e+02  7.576392636e+02
 7.580442758e+02  7.585541455e+02  7.582453485e+02  7.556079257e+02  7.583891962e+02  7.583939618e+02
 7.281611573e+02  7.580397711e+02  7.585766693e+02  7.583822275e+02  7.482644588e+02  7.583803335e+02
 7.160064791e+02  7.047811325e+02  7.585303589e+02  7.342933962e+02  7.523229188e+02  7.520997214e+02
 7.517787542e+02  7.411346818e+02  7.523836869e+02  7.528667641e+02  7.521870646e+02  7.524046657e+02
 7.525113254e+02  7.522669334e+02  7.521152940e+02  7.246672354e+02  7.527396541e+02  7.520191491e+02
 7.524191316e+02  7.525097393e+02  7.524605686e+02  7.519844703e+02  7.122309783e+02  7.191529420e+02
 7.254739530e+02  7.313221200e+02  7.460900499e+02  7.524486696e+02  7.518987116e+02  7.523233621e+02
 7.097412321e+02  7.522954913e+02  7.096532068e+02  7.101018694e+02  7.102256275e+02  7.100972372e+02
 7.098606603e+02  7.097215590e+02  7.096437634e+02  7.096270839e+02  7.096877424e+02  7.097946563e+02
 7.099728916e+02  7.104970710e+02  7.109258926e+02  7.109298713e+02  7.106889622e+02  7.102281757e+02
 7.100671130e+02  7.100126347e+02  7.100828546e+02  7.102618188e+02  7.102698555e+02  7.104777723e+02
 7.105943769e+02  7.107353150e+02  7.105988103e+02  7.103963583e+02  7.102804134e+02  7.102379700e+02
 7.105492779e+02  7.528115210e+02  7.523932500e+02  7.519401753e+02  7.524442768e+02  7.521260744e+02
 7.519760623e+02  7.101786436e+02  7.522286338e+02  7.524164421e+02  7.523440475e+02  7.521747685e+02
 7.173669566e+02  7.309423262e+02  7.521069488e+02  7.112220773e+02  7.461279339e+02  7.451797640e+02
 7.457195275e+02  7.458432077e+02  7.458638214e+02  7.456802211e+02  7.462718900e+02  7.450616659e+02
 7.457899066e+02  7.457748535e+02  7.459562058e+02  7.456344561e+02  7.453116022e+02  7.456732717e+02
 7.179060486e+02  7.240848014e+02  7.297954396e+02  7.355245844e+02  7.407238233e+02  7.458753846e+02
 7.452452247e+02  7.459384875e+02  7.457168101e+02  7.458456809e+02  7.151352091e+02  7.166513909e+02
 7.161179134e+02  7.165606371e+02  7.165966385e+02  7.164683333e+02  7.164702193e+02  7.165587318e+02
 7.166311354e+02  7.167440912e+02  7.167664797e+02  7.168967074e+02  7.172112410e+02  7.172762487e+02
 7.173112845e+02  7.170349512e+02  7.169047139e+02  7.168830856e+02  7.168922083e+02  7.169362528e+02
 7.168448384e+02  7.168271354e+02  7.169958956e+02  7.172809702e+02  7.173026320e+02  7.170938597e+02
 7.167036781e+02  7.165250908e+02  7.162793813e+02  7.454572818e+02  7.453195837e+02  7.455549585e+02
 7.458598453e+02  7.459888430e+02  7.455861738e+02  7.460215876e+02  7.275822610e+02  7.453303709e+02
 7.458797459e+02  7.373974691e+02  7.168113604e+02  7.449819996e+02  7.394276938e+02  7.210861577e+02
 7.396031988e+02  7.404314805e+02  7.407046981e+02  7.395641349e+02  7.237591600e+02  7.402535266e+02
 7.391136040e+02  7.398591954e+02  7.400720521e+02  7.397346861e+02  7.389112186e+02  7.228740610e+02
 7.283955817e+02  7.331340648e+02  7.397375222e+02  7.402175195e+02  7.397238103e+02  7.400390680e+02
 7.393487110e+02  7.401949750e+02  7.395877232e+02  7.207979126e+02  7.220383168e+02  7.229147930e+02
 7.227155427e+02  7.225026475e+02  7.225897172e+02  7.227204065e+02  7.229713986e+02  7.230059290e+02
 7.228222431e+02  7.229181854e+02  7.230672327e+02  7.231274678e+02  7.230330386e+02  7.229328491e+02
 7.228572451e+02  7.228633457e+02  7.228992091e+02  7.227194173e+02  7.224149753e+02  7.226197987e+02
 7.233289988e+02  7.234701212e+02  7.230787763e+02  7.223143378e+02  7.220426838e+02  7.221663942e+02
 7.389734846e+02  7.396456839e+02  7.402630189e+02  7.399337535e+02  7.387761450e+02  7.398494717e+02
 7.397087027e+02  7.388256471e+02  7.294297579e+02  7.393235855e+02  7.332263702e+02  7.376725882e+02
 7.212509137e+02  7.397346947e+02  7.344725980e+02  7.343904354e+02  7.339242645e+02  7.343043101e+02
 7.339144428e+02  7.339959072e+02  7.347281294e+02  7.342269427e+02  7.334735628e+02  7.271866979e+02
 7.356322836e+02  7.337533881e+02  7.341917004e+02  7.356436337e+02  7.338427670e+02  7.287534857e+02
 7.286674506e+02  7.284066593e+02  7.283824429e+02  7.284990908e+02  7.287253283e+02  7.295684903e+02
 7.287184801e+02  7.285419584e+02  7.286003393e+02  7.285797313e+02  7.287056393e+02  7.286759048e+02
 7.286025847e+02  7.286178486e+02  7.285658802e+02  7.285295235e+02  7.281464752e+02  7.272579661e+02
 7.286171666e+02  7.296291542e+02  7.287382776e+02  7.278528196e+02  7.264495730e+02  7.274594465e+02
 7.327738713e+02  7.348542121e+02  7.339876698e+02  7.339701349e+02  7.340652139e+02  7.339690178e+02
 7.337956175e+02  7.339378756e+02  7.259770753e+02  7.331568174e+02  7.337999055e+02  7.307371758e+02
 7.325290211e+02  7.336042703e+02  7.338702523e+02  7.331034026e+02  7.762112790e+02  7.750846053e+02
 7.750894141e+02  7.751127909e+02  7.750788258e+02  7.750603673e+02  7.750572158e+02  7.750515646e+02
 7.750487744e+02  7.749691191e+02  7.750343144e+02  7.750193965e+02  7.750082877e+02  7.749929806e+02
 7.749899578e+02  7.749998228e+02  7.749988953e+02  7.749856476e+02  7.749823384e+02  7.749851659e+02
 7.749619383e+02  7.750158256e+02  7.750325922e+02  7.750375270e+02  7.750318247e+02  7.750133200e+02
 7.749869139e+02  7.749624530e+02  7.749600045e+02  7.749752130e+02  7.750034852e+02  7.748903914e+02
 7.749549629e+02  7.749495360e+02  7.749359930e+02  7.749260185e+02  7.748915110e+02  7.748282947e+02
 7.748262949e+02  7.748204945e+02  7.747207639e+02  7.732321189e+02  6.927341444e+02  7.044824395e+02
 7.188235737e+02  7.315918951e+02  7.444712406e+02  7.583980878e+02  7.649705296e+02  6.906513621e+02
 6.906325014e+02  6.906776947e+02  6.906447831e+02  6.905708763e+02  6.904168491e+02  6.903925891e+02
 6.904500868e+02  6.906281618e+02  6.908072357e+02  6.906730950e+02  6.906890541e+02  6.906659656e+02
 6.907843930e+02  6.909150127e+02  6.909275786e+02  6.909933675e+02  6.910355077e+02  6.911642519e+02
 6.914029625e+02  6.915960031e+02  6.917653783e+02  6.965689344e+02  7.035061297e+02  7.108680068e+02
 7.179600213e+02  7.245789055e+02  7.308547753e+02  7.370585378e+02  7.435394524e+02  7.503345527e+02
 7.572040656e+02  7.638389750e+02  7.695893190e+02  6.976396678e+02  7.118092286e+02  7.253531340e+02
 7.378724400e+02  7.514395615e+02  6.906717074e+02  6.906423705e+02  6.906698388e+02  6.906211053e+02
 6.903863548e+02  6.904079567e+02  6.903988733e+02  6.905275878e+02  6.907241528e+02  6.908251699e+02
 6.907079509e+02  6.906659284e+02  6.907161113e+02  6.908593499e+02  6.909483444e+02  6.908540074e+02
 6.910133755e+02  6.910834088e+02  6.912752725e+02  6.915495382e+02  7.752628985e+02  6.936207072e+02
 7.691063552e+02  7.693173095e+02  7.691357091e+02  7.690266972e+02  7.690061960e+02  7.690278830e+02
 7.690516745e+02  7.690527190e+02  7.689417807e+02  7.690126244e+02  7.690131195e+02  7.690062822e+02
 7.689964918e+02  7.689819381e+02  7.689690626e+02  7.689504923e+02  7.689415966e+02  7.689477589e+02
 7.689274089e+02  7.689871356e+02  7.690321286e+02  7.690496096e+02  7.690527026e+02  7.690381776e+02
 7.690044348e+02  7.689668952e+02  7.689358821e+02  7.689349081e+02  7.689543378e+02  7.689011935e+02
 7.689241203e+02  7.689457297e+02  7.689526861e+02  7.689324303e+02  7.688628088e+02  7.687111390e+02
 7.685153800e+02  7.684646479e+02  7.685137619e+02  7.687250398e+02  6.930423718e+02  7.010399166e+02
 7.221760086e+02  7.153935170e+02  7.480937559e+02  6.930485295e+02  6.935920162e+02  6.934269515e+02
 6.936567834e+02  6.937083140e+02  6.934178177e+02  7.080947124e+02  6.933300814e+02  6.934816765e+02
 6.931144527e+02  6.933936717e+02  6.930228752e+02  6.930853672e+02  6.932878289e+02  6.936057436e+02
 6.936728160e+02  6.934908726e+02  6.933734017e+02  6.934817312e+02  6.936672791e+02  6.937388008e+02
 6.937654358e+02  6.937808227e+02  6.938267811e+02  6.940662767e+02  6.946541940e+02  7.412566190e+02
 6.998797924e+02  7.070703336e+02  7.144158285e+02  7.213789949e+02  7.278563397e+02  7.340845524e+02
 7.403837235e+02  7.469933009e+02  7.537935950e+02  7.607327653e+02  7.688452987e+02  7.347907204e+02
 7.560930830e+02  6.931402179e+02  7.629699408e+02  7.285658327e+02  6.936788473e+02  6.934475786e+02
 6.934741434e+02  6.934030216e+02  6.933951074e+02  6.935905169e+02  6.937280875e+02  6.936351594e+02
 6.937824144e+02  6.937792498e+02  6.939065727e+02  6.942467341e+02  7.637478432e+02  7.634681295e+02
 7.633631728e+02  7.634103754e+02  7.634950552e+02  7.635176709e+02  7.634703139e+02  7.635046135e+02
 7.634944708e+02  7.635016145e+02  7.634952741e+02  7.634774431e+02  7.634391485e+02  7.633898155e+02
 7.633580000e+02  7.633513848e+02  7.633591895e+02  7.634291191e+02  7.634920344e+02  7.635400584e+02
 7.635663936e+02  7.635606463e+02  7.635287631e+02  7.634708686e+02  7.634036772e+02  7.633628481e+02
 7.633490792e+02  7.633162739e+02  7.633870302e+02  7.633085889e+02  7.633593169e+02  7.633815013e+02
 7.633025728e+02  7.630934264e+02  7.628346013e+02  7.625939842e+02  6.972652396e+02  7.043713192e+02
 6.973450001e+02  6.980545997e+02  7.190516372e+02  7.624713190e+02  6.975053029e+02  6.976608968e+02
 7.120703247e+02  6.982685197e+02  6.978605065e+02  6.974752843e+02  6.977730977e+02  6.978244345e+02
 6.980367600e+02  6.977771939e+02  6.980830405e+02  6.981375522e+02  6.981459220e+02  6.982111896e+02
 6.982458973e+02  6.981414442e+02  7.318065598e+02  6.973354709e+02  7.032758210e+02  6.978587233e+02
 7.106552810e+02  7.181165262e+02  7.249678843e+02  7.313580232e+02  7.376171174e+02  7.440353032e+02
 7.505824259e+02  7.569854368e+02  7.633742428e+02  6.973369977e+02  7.511501098e+02  6.982299289e+02
 6.986495539e+02  7.447352754e+02  6.981141149e+02  6.981807227e+02  6.982825439e+02  6.982499805e+02
 6.979116578e+02  6.977028747e+02  6.982837811e+02  7.255774282e+02  6.972538484e+02  6.982571523e+02
 7.566855316e+02  6.983838132e+02  7.641720549e+02  6.978262402e+02  6.979903315e+02  7.381060674e+02
 6.977041703e+02  6.982365519e+02  6.983879674e+02  6.983124475e+02  7.032103133e+02  7.577076833e+02
 7.577234582e+02  7.579097872e+02  7.580245561e+02  7.580358449e+02  7.580549254e+02  7.580595375e+02
 7.580934083e+02  7.580838820e+02  7.580532510e+02  7.580045306e+02  7.579098477e+02  7.578215014e+02
 7.577823126e+02  7.577759519e+02  7.578149124e+02  7.579783510e+02  7.580520861e+02  7.581395685e+02
 7.581503028e+02  7.581118622e+02  7.580497162e+02  7.579583875e+02  7.578725698e+02  7.578070326e+02
 7.577521296e+02  7.578356405e+02  7.577766663e+02  7.577589696e+02  7.578543879e+02  7.578273496e+02
 7.575583202e+02  7.571245727e+02  7.566928606e+02  7.416561182e+02  7.034007533e+02  7.226628209e+02
 7.037839904e+02  7.595622357e+02  7.029277574e+02  7.036656442e+02  7.031247776e+02  7.046716714e+02
 7.031725624e+02  7.040340969e+02  7.041933733e+02  7.039795650e+02  7.587778660e+02  7.036195910e+02
 7.162156371e+02  7.095301411e+02  7.040787990e+02  7.029634694e+02  7.030172819e+02  7.035075593e+02
 7.580806423e+02  7.033598839e+02  7.351721261e+02  7.041020996e+02  7.060247488e+02  7.148349527e+02
 7.221741051e+02  7.287739372e+02  7.351069283e+02  7.415674777e+02  7.480523999e+02  7.543046493e+02
 7.040083391e+02  7.041489923e+02  7.031422444e+02  7.495246983e+02  7.038014478e+02  7.038370583e+02
 7.034826498e+02  7.042463840e+02  7.289599830e+02  7.042410038e+02  7.037358882e+02  7.034240742e+02
 7.033661152e+02  7.037747071e+02  7.037241613e+02  7.041857965e+02  7.036184365e+02  7.034210837e+02
 7.041266726e+02  7.517074921e+02  7.519580698e+02  7.520675852e+02  7.521131202e+02  7.521549056e+02
 7.522209152e+02  7.522379154e+02  7.521811296e+02  7.521076976e+02  7.519994430e+02  7.518031196e+02
 7.516407042e+02  7.516409675e+02  7.516870143e+02  7.518145006e+02  7.519918830e+02  7.521649487e+02
 7.522087836e+02  7.521528386e+02  7.520699234e+02  7.519941773e+02  7.519135096e+02  7.518295331e+02
 7.518404319e+02  7.519897783e+02  7.520790816e+02  7.520095576e+02  7.520996758e+02  7.521661371e+02
 7.521300009e+02  7.513426817e+02  7.121793307e+02  7.101815020e+02  7.099143157e+02  7.097916479e+02
 7.092418125e+02  7.099773924e+02  7.103558245e+02  7.105524953e+02  7.100601991e+02  7.261540510e+02
 7.198960790e+02  7.387352121e+02  7.103044179e+02  7.195516501e+02  7.262722883e+02  7.326942394e+02
 7.393182880e+02  7.461078111e+02  7.103883197e+02  7.098435981e+02  7.097001246e+02  7.099557160e+02
 7.099334709e+02  7.107155561e+02  7.324456867e+02  7.098434289e+02  7.506715205e+02  7.101626996e+02
 7.097222763e+02  7.095936297e+02  7.513021071e+02  7.097152924e+02  7.090452475e+02  7.094006867e+02
 7.528193663e+02  7.096148615e+02  7.092922083e+02  7.105614518e+02  7.098850586e+02  7.448132941e+02
 7.136176202e+02  7.094374844e+02  7.515877716e+02  7.103852860e+02  7.101969378e+02  7.101199300e+02
 7.105749878e+02  7.106889125e+02  7.295372029e+02  7.458108952e+02  7.458522110e+02  7.459389033e+02
 7.461339413e+02  7.462080274e+02  7.461391688e+02  7.459769014e+02  7.459343499e+02  7.457570156e+02
 7.452921387e+02  7.452022143e+02  7.454757780e+02  7.453743293e+02  7.455210479e+02  7.460053917e+02
 7.460451935e+02  7.458748813e+02  7.457121404e+02  7.456750240e+02  7.456805378e+02  7.456540475e+02
 7.456929648e+02  7.459353716e+02  7.460361415e+02  7.459033400e+02  7.457918527e+02  7.458346771e+02
 7.457950323e+02  7.462670144e+02  7.164408500e+02  7.452598640e+02  7.166392957e+02  7.173137283e+02
 7.077934580e+02  7.162002213e+02  7.456962218e+02  7.160809319e+02  7.105001994e+02  7.164903098e+02
 7.162656399e+02  7.232411554e+02  7.163976169e+02  7.161709742e+02  7.164018732e+02  7.162041638e+02
 7.162289145e+02  7.237868204e+02  7.300329384e+02  7.365062386e+02  7.440972807e+02  7.165193313e+02
 7.163870432e+02  7.162820675e+02  7.436459105e+02  7.361467215e+02  7.162485398e+02  7.169868206e+02
 7.146051047e+02  7.168484740e+02  7.155638150e+02  7.165001682e+02  7.137644412e+02  7.171540383e+02
 7.161109376e+02  7.160262987e+02  7.154472776e+02  7.163254249e+02  7.171439566e+02  7.170047475e+02
 7.160350705e+02  7.223534981e+02  7.398083551e+02  7.399944777e+02  7.403938997e+02  7.404073216e+02
 7.399770357e+02  7.399420549e+02  7.401833092e+02  7.397604577e+02  7.384664065e+02  7.396269570e+02
 7.397141294e+02  7.386352061e+02  7.400183060e+02  7.403550300e+02  7.398584761e+02  7.393902622e+02
 7.393111464e+02  7.395495879e+02  7.396597721e+02  7.398272696e+02  7.401213695e+02  7.405497085e+02
 7.403951984e+02  7.399101887e+02  7.396302620e+02  7.395285863e+02  7.394067376e+02  7.223560440e+02
 7.263439431e+02  7.227264057e+02  7.153391573e+02  7.390505745e+02  7.224865602e+02  7.203303917e+02
 7.168857285e+02  7.155259641e+02  7.398905667e+02  7.398621274e+02  7.222718308e+02  7.214241257e+02
 7.164527236e+02  7.272013325e+02  7.398361216e+02  7.225069690e+02  7.326334276e+02  7.224720225e+02
 7.221606453e+02  7.226611255e+02  7.232523861e+02  7.218049061e+02  7.223884841e+02  7.223499349e+02
 7.191579776e+02  7.229485779e+02  7.330218457e+02  7.222260519e+02  7.220757531e+02  7.224401421e+02
 7.223863693e+02  7.234456169e+02  7.221693589e+02  7.226296656e+02  7.342968754e+02  7.354429221e+02
 7.340392805e+02  7.337333548e+02  7.341301195e+02  7.351407318e+02  7.335667655e+02  7.334799416e+02
 7.349328602e+02  7.335483145e+02  7.337837786e+02  7.353983384e+02  7.343116685e+02  7.337060848e+02
 7.327129743e+02  7.336152432e+02  7.339333395e+02  7.341015496e+02  7.343579802e+02  7.347004202e+02
 7.357673648e+02  7.345408095e+02  7.339960739e+02  7.336894991e+02  7.338620695e+02  7.281907531e+02
 7.218425493e+02  7.211754702e+02  7.247579223e+02  7.222920249e+02  7.339188418e+02  7.287721736e+02
 7.223757443e+02  7.339688544e+02  7.344097085e+02  7.231608314e+02  7.277956236e+02  7.265957822e+02
 7.274632572e+02  7.283753587e+02  7.288926779e+02  7.282808617e+02  7.283877033e+02  7.339939215e+02
 7.234062550e+02  7.291565718e+02  7.218739750e+02  7.277128981e+02  7.275952409e+02  7.342154504e+02
 7.290364037e+02  7.278189996e+02  7.286268186e+02  7.283221970e+02  7.207018557e+02  7.297650000e+02
 7.297283483e+02  7.280853831e+02  7.276005881e+02  7.284974967e+02  7.273274511e+02  7.280713947e+02
 7.321290870e+02  7.323147322e+02  7.277851316e+02  7.287649230e+02  7.289892486e+02  7.288339432e+02
 7.289423634e+02  7.283848160e+02  7.939580101e+02  7.939480435e+02  7.938970210e+02  7.938687642e+02
 7.938511692e+02  7.938060637e+02  7.934450346e+02  7.917989615e+02  7.939249054e+02  7.939338354e+02
 7.939364531e+02  7.939211725e+02  7.939183301e+02  7.939291613e+02  7.938995796e+02  7.939163738e+02
 7.939173830e+02  7.939027118e+02  7.939084630e+02  7.938838286e+02  7.938920043e+02  7.938925512e+02
 7.939005587e+02  7.938901113e+02  7.938917331e+02  7.939143022e+02  7.939287390e+02  7.916311031e+02
 7.917081574e+02  7.922079664e+02  7.918119877e+02  7.918877337e+02  7.921022966e+02  7.921056130e+02
 7.919703842e+02  7.920725764e+02  7.918855693e+02  7.920946831e+02  7.935083426e+02  7.938007692e+02
 7.938550761e+02  7.938685230e+02  7.938935626e+02  7.939253185e+02  7.939070546e+02  7.939178060e+02
 7.939266804e+02  7.939202689e+02  7.939128196e+02  7.939036484e+02  7.939224624e+02  7.939220057e+02
 7.939290829e+02  7.939083768e+02  7.939115631e+02  7.939330825e+02  7.939037085e+02  7.939031806e+02
 7.938924215e+02  7.938932621e+02  7.938982298e+02  7.939036968e+02  7.939280497e+02  7.938806515e+02
 7.938635728e+02  7.938675481e+02  7.938002847e+02  7.933703734e+02  7.939520671e+02  7.939465321e+02
 7.939397907e+02  7.939394456e+02  7.939442106e+02  7.939378375e+02  7.939414100e+02  7.939240121e+02
 7.939369541e+02  7.939337771e+02  7.939290442e+02  7.939349315e+02  7.939332957e+02  7.939282736e+02
 7.939260343e+02  7.939244381e+02  7.939139749e+02  7.939274329e+02  7.939376587e+02  7.939261305e+02
 7.939471428e+02  7.939430557e+02  7.934241443e+02  7.937961336e+02  7.938661682e+02  7.938688713e+02
 7.938856691e+02  7.939318269e+02  7.933811642e+02  7.935983517e+02  7.932862478e+02  7.934623186e+02
 7.934240435e+02  7.936248257e+02  7.933978302e+02  7.935776925e+02  7.934772190e+02  7.939381997e+02
 7.939333530e+02  7.939291402e+02  7.939288947e+02  7.939272906e+02  7.939341691e+02  7.939347325e+02
 7.939269256e+02  7.939206558e+02  7.939277430e+02  7.939168428e+02  7.939186406e+02  7.939337815e+02
 7.939155980e+02  7.938800616e+02  7.938569829e+02  7.938592961e+02  7.937649685e+02  7.939167818e+02
 7.937912380e+02  7.939141728e+02  7.939124957e+02  7.939174382e+02  7.939049726e+02  7.939241275e+02
 7.938158982e+02  7.939246544e+02  7.939252624e+02  7.939106166e+02  7.939149257e+02  7.939081649e+02
 7.939132313e+02  7.939250313e+02  7.939159686e+02  7.938074836e+02  7.938013458e+02  7.938658158e+02
 7.938707379e+02  7.938883821e+02  7.938093835e+02  7.939196273e+02  7.937774302e+02  7.938022136e+02
 7.937797489e+02  7.937910530e+02  7.939220467e+02  7.939161907e+02  7.939226406e+02  7.938437416e+02
 7.939316763e+02  7.939224120e+02  7.939210332e+02  7.939171843e+02  7.939165810e+02  7.939148306e+02
 7.939206204e+02  7.939150706e+02  7.939105043e+02  7.939131082e+02  7.939071971e+02  7.938687428e+02
 7.939289028e+02  7.939161196e+02  7.939174334e+02  7.938503130e+02  7.938834186e+02  7.938476072e+02
 7.938939481e+02  7.938824221e+02  7.938594956e+02  7.938403586e+02  7.938864538e+02  7.938528502e+02
 7.938855469e+02  7.938842869e+02  7.938887644e+02  7.938819254e+02  7.938962928e+02  7.938819747e+02
 7.938888387e+02  7.938899296e+02  7.938839387e+02  7.938794338e+02  7.938951262e+02  7.938744070e+02
 7.938584892e+02  7.938433547e+02  7.938792480e+02  7.938860615e+02  7.938988870e+02  7.938984480e+02
 7.938878691e+02  7.938604249e+02  7.938944068e+02  7.938904665e+02  7.938505689e+02  7.938945934e+02
 7.938822898e+02  7.938868640e+02  7.938948829e+02  7.939014445e+02  7.938541045e+02  7.938561428e+02
 7.938952362e+02  7.938906205e+02  7.938915987e+02  7.938368078e+02  7.938372221e+02  7.938697730e+02
 7.938698956e+02  7.938620787e+02  7.938596769e+02  7.938682589e+02  7.938554487e+02  7.938721488e+02
 7.938555088e+02  7.938798962e+02  7.938676651e+02  7.938830828e+02  7.938634781e+02  7.938504061e+02
 7.938766381e+02  7.938798959e+02  7.938755111e+02  7.938720831e+02  7.938725412e+02  7.938828426e+02
 7.938642173e+02  7.819396282e+02  7.816950504e+02  7.816228447e+02  7.815030515e+02  7.802931232e+02
 7.804496123e+02  7.801748230e+02  7.803031613e+02  7.803187281e+02  7.802647870e+02  7.802564994e+02
 7.802700617e+02  7.804036308e+02  7.800929848e+02  7.800240403e+02  7.816064340e+02  7.815771157e+02
 7.818041399e+02  7.818364372e+02  7.818618273e+02  7.817889213e+02  7.818556646e+02  7.818635778e+02
 7.819416933e+02  7.818533749e+02  7.818085496e+02  7.817826783e+02  7.818023613e+02  7.817773801e+02
 7.818609940e+02  7.817867385e+02  7.818693538e+02  7.818089840e+02  7.817971065e+02  7.818060323e+02
 7.818498489e+02  7.818401682e+02  7.818162482e+02  7.818194720e+02  7.818624454e+02  7.817728610e+02
 7.817692320e+02  7.818427848e+02  7.818440493e+02  7.817559299e+02  7.817085936e+02  7.816921546e+02
 7.818190358e+02  7.818086674e+02  7.816825998e+02  7.818575661e+02  7.818838952e+02  7.815739095e+02
 7.817179897e+02  7.800465637e+02  7.816871836e+02  7.813506071e+02  7.815991908e+02  7.818389760e+02
 7.816058623e+02  7.815484302e+02  7.815939117e+02  7.813884704e+02  7.815229644e+02  7.816551439e+02
 7.813566783e+02  7.813345373e+02  7.817371184e+02  7.816176150e+02  7.817655727e+02  7.818494550e+02
 7.819310284e+02  7.819227218e+02  7.818877055e+02  7.819305228e+02  7.819034759e+02  7.818801873e+02
 7.818995352e+02  7.819251895e+02  7.818638471e+02  7.818738819e+02  7.818656909e+02  7.818806242e+02
 7.819117015e+02  7.818971252e+02  7.818490122e+02  7.818680993e+02  7.818829334e+02  7.818987226e+02
 7.818975590e+02  7.818761290e+02  7.818727908e+02  7.818010782e+02  7.817976046e+02  7.818189509e+02
 7.818026949e+02  7.818221642e+02  7.818692329e+02  7.818604902e+02  7.818649666e+02  7.819295661e+02
 7.814327644e+02  7.815057407e+02  7.813692436e+02  7.815362380e+02  7.815194609e+02  7.814089487e+02
 7.816318873e+02  7.816031651e+02  7.816639545e+02  7.817591472e+02  7.816748500e+02  7.817199739e+02
 7.817020210e+02  7.817382884e+02  7.817609961e+02  7.817623777e+02  7.817270763e+02  7.817621647e+02
 7.817630452e+02  7.817181183e+02  7.816995546e+02  7.817264116e+02  7.818147026e+02  7.816714858e+02
 7.816799700e+02  7.817339967e+02  7.817135194e+02  7.817690061e+02  7.816936466e+02  7.817118868e+02
 7.816868090e+02  7.816707581e+02  7.816520592e+02  7.816670155e+02  7.818062702e+02  7.816293213e+02
 7.816410154e+02  7.816520992e+02  7.815936381e+02  7.816333942e+02  7.817759454e+02  7.815584478e+02
 7.817674039e+02  7.816106255e+02  7.815890921e+02  7.816393513e+02  7.817056649e+02  7.817193272e+02
 7.817818724e+02  7.817521695e+02  7.817150928e+02  7.817110202e+02  7.816430013e+02  7.816719858e+02
 7.815710582e+02  7.816116775e+02  7.816628767e+02  7.815946932e+02  7.815763142e+02  7.815859393e+02
 7.816492543e+02  7.816368462e+02  7.816051000e+02  7.816255713e+02  7.815574002e+02  7.816115089e+02
 7.816518201e+02  7.815832856e+02  7.815919500e+02  7.815887733e+02  7.815874769e+02  7.816111928e+02
 7.816546668e+02  7.815937453e+02  7.815964973e+02  7.816178872e+02  7.816206833e+02  7.816533287e+02
 7.816452903e+02  7.817200179e+02  7.815807343e+02  7.815472947e+02  7.815279520e+02  7.815259557e+02
 7.815919944e+02  7.816103191e+02  7.815675035e+02  7.816269825e+02  7.815424661e+02  7.816752119e+02
 7.816619911e+02  7.815934631e+02  7.816213660e+02  7.815393798e+02  7.815896391e+02  7.816370899e+02
 7.795483803e+02  7.766489911e+02  7.793239501e+02  7.799610948e+02  7.812137683e+02  7.802483697e+02
 7.810742761e+02  7.769011204e+02  7.767566961e+02  7.762428551e+02  7.762350389e+02  7.764346861e+02
 7.792744467e+02  7.772298217e+02  7.798915120e+02  7.780172170e+02  7.781152485e+02  7.722455281e+02
 7.722978433e+02  7.723623022e+02  7.722572281e+02  7.727474728e+02  7.701811326e+02  7.706356317e+02
 7.702541245e+02  7.706332630e+02  7.699435563e+02  7.744707455e+02  7.736717976e+02  7.737354950e+02
 7.730017031e+02  7.738764254e+02  7.729317260e+02  7.698565981e+02  7.717390613e+02  7.714947315e+02
 7.776244101e+02  7.776272076e+02  7.765369658e+02  7.777864958e+02  7.777677830e+02  7.771476517e+02
 7.776179074e+02  7.778293077e+02  7.778503489e+02  7.777798183e+02  7.776905190e+02  7.769349132e+02
 7.769206393e+02  7.776436156e+02  7.776150018e+02  7.778709447e+02  7.773177120e+02  7.776971848e+02
 7.767376854e+02  7.777301622e+02  7.777959539e+02  7.778264057e+02  7.775832033e+02  7.778003601e+02
 7.778208144e+02  7.778183226e+02  7.777211097e+02  7.776394711e+02  7.777253422e+02  7.774867723e+02
 7.777666662e+02  7.778364388e+02  7.778145268e+02  7.778073426e+02  7.777918445e+02  7.775186738e+02
 7.775123298e+02  7.775074977e+02  7.775181142e+02  7.777874119e+02  7.791487802e+02  7.781691462e+02
 7.776522896e+02  7.780181144e+02  7.781311795e+02  7.782630279e+02  7.780938925e+02  7.780384068e+02
 7.778992856e+02  7.777588858e+02  7.784689614e+02  7.779283733e+02  7.778049393e+02  7.776728360e+02
 7.793131109e+02  7.786076082e+02  7.782305681e+02  7.781279379e+02  7.783768865e+02  7.780928983e+02
 7.777740649e+02  7.781817710e+02  7.779626270e+02  7.782825938e+02  7.779287780e+02  7.777513849e+02
 7.776206249e+02  7.776413651e+02  7.776609987e+02  7.776260455e+02  7.776300861e+02  7.776442038e+02
 7.777548266e+02  7.777660306e+02  7.777876134e+02  7.778008360e+02  7.778007105e+02  7.778075075e+02
 7.777669530e+02  7.777305607e+02  7.777482041e+02  7.777378011e+02  7.779275997e+02  7.779410216e+02
 7.779002752e+02  7.778899246e+02  7.778952920e+02  7.778917113e+02  7.778866527e+02  7.779057442e+02
 7.779039581e+02  7.778997549e+02  7.778773938e+02  7.805379956e+02  7.783675538e+02  7.780256862e+02
 7.811679326e+02  7.810102251e+02  7.812681752e+02  7.815116030e+02  7.812468811e+02  7.796272321e+02
 7.788220914e+02  7.783144919e+02  7.780170605e+02  7.790646214e+02  7.813847885e+02  7.806612919e+02
 7.812816394e+02  7.807919433e+02  7.816901752e+02  7.794716343e+02  7.796761456e+02  7.781421665e+02
 7.781081952e+02  7.780739292e+02  7.780383719e+02  7.780552990e+02  7.780401808e+02  7.780781472e+02
 7.781043986e+02  7.797604443e+02  7.786739826e+02  7.798559067e+02  7.795250415e+02  7.780783991e+02
 7.794072143e+02  7.795529840e+02  7.793095311e+02  7.793902839e+02  7.785961981e+02  7.785215450e+02
 7.783243943e+02  7.783606332e+02  7.783229862e+02  7.782972560e+02  7.785032823e+02  7.786054702e+02
 7.788404316e+02  7.786901892e+02  7.789319964e+02  7.770704311e+02  7.774511595e+02  6.624645675e+02
 6.585671112e+02  6.642359031e+02  6.747507753e+02  6.646476150e+02  6.678568308e+02  6.806544009e+02
 6.747771699e+02  6.770896492e+02  6.732114429e+02  6.521991747e+02  6.750143543e+02  6.725715449e+02
 6.815413842e+02  6.796448027e+02  6.676714261e+02  6.938231602e+02  6.949532253e+02  6.953741754e+02
 6.942979502e+02  6.921925453e+02  6.937653543e+02  6.956220307e+02  6.974154923e+02  6.940141801e+02
 6.916970279e+02  6.925124917e+02  6.856790877e+02  6.939583251e+02  6.910700624e+02  6.937111293e+02
 6.930436167e+02  6.930742485e+02  6.958110539e+02  6.903651385e+02  6.883985460e+02  6.947486156e+02
 6.883877868e+02  6.933981970e+02  6.908785686e+02  6.862350466e+02  6.904132774e+02  6.893517578e+02
 6.820084119e+02  6.812128076e+02  6.821101276e+02  6.835041795e+02  6.873280617e+02  6.869050735e+02
 6.909915595e+02  6.914718951e+02  6.868372226e+02  6.900881245e+02  6.873868904e+02  6.882991801e+02
 6.822187877e+02  6.856484373e+02  6.824476539e+02  6.817770935e+02  6.853837621e+02  6.863450475e+02
 6.870028554e+02  6.872783495e+02  6.802156536e+02  6.832811871e+02  7.021510808e+02  7.009861297e+02
 6.836836607e+02  6.848333669e+02  6.797867894e+02  7.261108528e+02  7.261658224e+02  7.313881193e+02
 7.305704811e+02  7.369892374e+02  7.311537749e+02  7.387970700e+02  7.385845902e+02  7.339544905e+02
 7.404075576e+02  7.414524799e+02  7.449487867e+02  7.361244030e+02  7.405210140e+02  7.520539019e+02
 7.454080047e+02  7.429737281e+02  7.446571360e+02  7.485222258e+02  7.532446661e+02  7.510795704e+02
 7.469983690e+02  7.481479611e+02  7.478433854e+02  7.523860539e+02  7.495469922e+02  7.506228152e+02
 7.482768443e+02  7.485840723e+02  7.468932781e+02  7.434977926e+02  7.496387498e+02  7.545417806e+02
 7.492432246e+02  7.472877378e+02  7.508742214e+02  7.509347997e+02  7.509281630e+02  7.508491569e+02
 7.509683403e+02  7.509739892e+02  7.509531644e+02  7.509967041e+02  7.509643706e+02  7.509260614e+02
 7.508880282e+02  7.509839646e+02  7.509309777e+02  7.510021974e+02  7.509630722e+02  7.508722319e+02
 7.509073698e+02  7.509043259e+02  7.508764717e+02  7.509413008e+02  7.507233519e+02  7.509393887e+02
 7.508873870e+02  7.508819651e+02  7.508834312e+02  7.508788111e+02  7.509371124e+02  7.509621528e+02
 7.508954311e+02  7.509059555e+02  7.508916131e+02  7.508312633e+02  7.508189601e+02  7.509183324e+02
 7.509231774e+02  7.509536483e+02  7.509638703e+02  7.508233237e+02  7.508895280e+02  7.509056118e+02
 8.974882285e+01  8.141396057e+01  1.041828888e+02  1.341405413e+02  2.426723716e+02  1.689940655e+02
 1.542286915e+02  1.716605923e+02  1.811979649e+02  2.448826484e+02  9.589443528e+01  1.342116649e+02
 1.220979540e+02  2.314507215e+02  2.959052132e+02  3.306783472e+02  3.367507298e+02  3.245706249e+02
 7.345933545e+01  6.785106365e+01  5.285184731e+01  7.877928008e+02  7.878882257e+02  7.875772021e+02
 7.878333820e+02  7.880845940e+02  7.878765939e+02  7.876923569e+02  7.877255965e+02  7.879353797e+02
 7.878057018e+02  7.874126881e+02  7.880294505e+02  7.878579889e+02  7.879694791e+02  7.877870459e+02
 7.877848417e+02  7.880555846e+02  7.878665761e+02  7.877854821e+02  7.880081596e+02  7.883065323e+02
 7.886319069e+02  7.878383451e+02  7.877760997e+02  7.878837716e+02  7.880029321e+02  7.877611520e+02
 7.879457125e+02  7.875979114e+02  7.878981698e+02  7.878673264e+02  7.870499676e+02  7.875283026e+02
 7.882278803e+02  7.879296029e+02  7.879332295e+02  7.880289705e+02  7.873737386e+02  7.878287577e+02
 7.877395490e+02  7.877221906e+02  7.879108149e+02  7.878206233e+02  7.877678829e+02  7.881851727e+02
 7.882000829e+02  7.877588941e+02  7.878181888e+02  7.879867256e+02  7.878388189e+02  7.878580867e+02
 7.874435482e+02  7.880871236e+02  7.873985884e+02  7.878486234e+02  7.874247747e+02  7.880100855e+02
 7.877698065e+02  7.881748854e+02  7.875411194e+02  7.884344249e+02  7.874631822e+02  7.877569057e+02
 7.875208380e+02  7.881492438e+02  7.875603491e+02  7.878101654e+02  7.876172773e+02  7.878221897e+02
 7.881091627e+02  7.877477287e+02  7.881410394e+02  7.881616558e+02  7.884576302e+02  7.878330874e+02
 7.882697138e+02  7.878310726e+02  7.877913736e+02  7.848151950e+02  7.738357961e+02  7.777853292e+02
 7.778523880e+02  7.779338370e+02  7.782587103e+02  7.787764447e+02  7.788210939e+02  7.787027357e+02
 7.780365033e+02  7.777701135e+02  7.777622925e+02  7.777663149e+02  7.780773129e+02  7.778856138e+02
 7.780551039e+02  7.776610039e+02  7.777018565e+02  7.786016261e+02  7.784991304e+02  7.779874848e+02
 7.786598997e+02  7.783136116e+02  7.783938787e+02  7.777823308e+02  7.781287225e+02  7.779413256e+02
 7.776684837e+02  7.733116734e+02  7.421679909e+02  7.145158877e+02  7.573058020e+02  7.868318888e+02
 7.266150377e+02  7.121617095e+02 
